timestamp,source_time,vehicle_id,uid,current,voltage,capacity,design_capacity
2019-10-05 14:20:00.448+08,2019-10-05 14:20:00.448+08,ddee18ee1107,pacifica2_bms,255,13.4,44.44,44.44
2019-10-05 14:20:02.443+08,2019-10-05 14:20:02.443+08,ddee18ee1107,pacifica2_bms,255,13.4,44.44,44.44
2019-10-05 14:20:04.451+08,2019-10-05 14:20:04.451+08,ddee18ee1107,pacifica2_bms,255,13.4,44.44,44.44
2019-10-05 14:20:06.447+08,2019-10-05 14:20:06.447+08,ddee18ee1107,pacifica2_bms,255,13.4,44.44,44.44
2019-10-05 14:20:08.446+08,2019-10-05 14:20:08.446+08,ddee18ee1107,pacifica2_bms,255,13.4,44.44,44.44
2019-10-05 14:20:10.45+08,2019-10-05 14:20:10.45+08,ddee18ee1107,pacifica2_bms,255,13.4,44.44,44.44
2019-10-05 14:20:12.447+08,2019-10-05 14:20:12.447+08,ddee18ee1107,pacifica2_bms,255,13.3,44.44,44.44
2019-10-05 14:20:14.454+08,2019-10-05 14:20:14.454+08,ddee18ee1107,pacifica2_bms,255,13.3,44.44,44.44
2019-10-05 14:20:16.45+08,2019-10-05 14:20:16.45+08,ddee18ee1107,pacifica2_bms,255,13.4,44.44,44.44
2019-10-05 14:20:18.444+08,2019-10-05 14:20:18.444+08,ddee18ee1107,pacifica2_bms,255,13.4,44.44,44.44
2019-10-05 14:20:20.449+08,2019-10-05 14:20:20.449+08,ddee18ee1107,pacifica2_bms,255,13.4,44.44,44.44
2019-10-05 14:20:22.444+08,2019-10-05 14:20:22.444+08,ddee18ee1107,pacifica2_bms,255,13.4,44.44,44.44
2019-10-05 14:20:24.445+08,2019-10-05 14:20:24.445+08,ddee18ee1107,pacifica2_bms,255,13.4,44.44,44.44
2019-10-05 14:20:26.451+08,2019-10-05 14:20:26.451+08,ddee18ee1107,pacifica2_bms,255,13.4,44.44,44.44
2019-10-05 14:20:28.447+08,2019-10-05 14:20:28.447+08,ddee18ee1107,pacifica2_bms,255,13.4,44.44,44.44
2019-10-05 14:20:30.446+08,2019-10-05 14:20:30.446+08,ddee18ee1107,pacifica2_bms,255,13.4,44.44,44.44
2019-10-05 14:20:32.454+08,2019-10-05 14:20:32.454+08,ddee18ee1107,pacifica2_bms,255,13.4,44.44,44.44
2019-10-05 14:20:34.449+08,2019-10-05 14:20:34.449+08,ddee18ee1107,pacifica2_bms,255,13.4,44.44,44.44
2019-10-05 14:20:36.445+08,2019-10-05 14:20:36.445+08,ddee18ee1107,pacifica2_bms,255,13.4,44.44,44.44
2019-10-05 14:20:38.447+08,2019-10-05 14:20:38.447+08,ddee18ee1107,pacifica2_bms,255,13.4,44.44,44.44
2019-10-05 14:20:40.444+08,2019-10-05 14:20:40.444+08,ddee18ee1107,pacifica2_bms,255,13.4,44.44,44.44
2019-10-05 14:20:42.458+08,2019-10-05 14:20:42.458+08,ddee18ee1107,pacifica2_bms,255,13.4,44.44,44.44
2019-10-05 14:20:44.449+08,2019-10-05 14:20:44.449+08,ddee18ee1107,pacifica2_bms,255,13.4,44.44,44.44
2019-10-05 14:20:46.453+08,2019-10-05 14:20:46.453+08,ddee18ee1107,pacifica2_bms,255,13.4,44.44,44.44
2019-10-05 14:20:48.45+08,2019-10-05 14:20:48.45+08,ddee18ee1107,pacifica2_bms,255,13.5,44.44,44.44
2019-10-05 14:20:50.448+08,2019-10-05 14:20:50.448+08,ddee18ee1107,pacifica2_bms,255,13.5,44.44,44.44
2019-10-05 14:20:52.451+08,2019-10-05 14:20:52.451+08,ddee18ee1107,pacifica2_bms,255,13.5,44.44,44.44
2019-10-05 14:20:54.452+08,2019-10-05 14:20:54.452+08,ddee18ee1107,pacifica2_bms,255,13.5,44.44,44.44
2019-10-05 14:20:56.443+08,2019-10-05 14:20:56.443+08,ddee18ee1107,pacifica2_bms,255,13.5,44.44,44.44
2019-10-05 14:20:58.445+08,2019-10-05 14:20:58.445+08,ddee18ee1107,pacifica2_bms,255,13.5,44.44,44.44
2019-10-05 14:21:00.451+08,2019-10-05 14:21:00.451+08,ddee18ee1107,pacifica2_bms,255,13.5,44.44,44.44
2019-10-05 14:21:02.449+08,2019-10-05 14:21:02.449+08,ddee18ee1107,pacifica2_bms,255,13.5,44.44,44.44
2019-10-05 14:21:04.453+08,2019-10-05 14:21:04.453+08,ddee18ee1107,pacifica2_bms,255,13.5,44.44,44.44
2019-10-05 14:21:06.452+08,2019-10-05 14:21:06.452+08,ddee18ee1107,pacifica2_bms,255,13.5,44.44,44.44
2019-10-05 14:21:08.447+08,2019-10-05 14:21:08.447+08,ddee18ee1107,pacifica2_bms,255,13.5,44.44,44.44
2019-10-05 14:21:10.453+08,2019-10-05 14:21:10.453+08,ddee18ee1107,pacifica2_bms,255,13.5,44.44,44.44
2019-10-05 14:21:12.451+08,2019-10-05 14:21:12.451+08,ddee18ee1107,pacifica2_bms,255,13.5,44.44,44.44
2019-10-05 14:21:14.45+08,2019-10-05 14:21:14.45+08,ddee18ee1107,pacifica2_bms,255,13.5,44.44,44.44
2019-10-05 14:21:16.452+08,2019-10-05 14:21:16.452+08,ddee18ee1107,pacifica2_bms,255,13.5,44.44,44.44
2019-10-05 14:21:18.454+08,2019-10-05 14:21:18.454+08,ddee18ee1107,pacifica2_bms,255,13.5,44.44,44.44
2019-10-05 14:21:20.449+08,2019-10-05 14:21:20.449+08,ddee18ee1107,pacifica2_bms,255,13.5,44.44,44.44
2019-10-05 14:21:22.455+08,2019-10-05 14:21:22.455+08,ddee18ee1107,pacifica2_bms,255,13.5,44.44,44.44
2019-10-05 14:21:24.448+08,2019-10-05 14:21:24.448+08,ddee18ee1107,pacifica2_bms,255,13.5,44.44,44.44
2019-10-05 14:21:26.452+08,2019-10-05 14:21:26.452+08,ddee18ee1107,pacifica2_bms,255,13.5,44.44,44.44
2019-10-05 14:21:28.446+08,2019-10-05 14:21:28.446+08,ddee18ee1107,pacifica2_bms,255,13.5,44.44,44.44
2019-10-05 14:21:30.445+08,2019-10-05 14:21:30.445+08,ddee18ee1107,pacifica2_bms,255,13.5,44.44,44.44
2019-10-05 14:21:32.453+08,2019-10-05 14:21:32.453+08,ddee18ee1107,pacifica2_bms,255,13.5,44.44,44.44
2019-10-05 14:21:34.448+08,2019-10-05 14:21:34.448+08,ddee18ee1107,pacifica2_bms,255,13.5,44.44,44.44
2019-10-05 14:21:36.453+08,2019-10-05 14:21:36.453+08,ddee18ee1107,pacifica2_bms,255,13.4,44.44,44.44
2019-10-05 14:21:38.449+08,2019-10-05 14:21:38.449+08,ddee18ee1107,pacifica2_bms,255,13.4,44.44,44.44
2019-10-05 14:21:40.447+08,2019-10-05 14:21:40.447+08,ddee18ee1107,pacifica2_bms,255,13.5,44.44,44.44
2019-10-05 14:21:42.452+08,2019-10-05 14:21:42.452+08,ddee18ee1107,pacifica2_bms,255,13.5,44.44,44.44
2019-10-05 14:21:44.452+08,2019-10-05 14:21:44.452+08,ddee18ee1107,pacifica2_bms,255,13.5,44.44,44.44
2019-10-05 14:21:46.445+08,2019-10-05 14:21:46.445+08,ddee18ee1107,pacifica2_bms,255,13.5,44.44,44.44
2019-10-05 14:21:48.448+08,2019-10-05 14:21:48.448+08,ddee18ee1107,pacifica2_bms,255,13.5,44.44,44.44
2019-10-05 14:21:50.444+08,2019-10-05 14:21:50.444+08,ddee18ee1107,pacifica2_bms,255,13.5,44.44,44.44
2019-10-05 14:21:52.448+08,2019-10-05 14:21:52.448+08,ddee18ee1107,pacifica2_bms,255,13.5,44.44,44.44
2019-10-05 14:21:54.446+08,2019-10-05 14:21:54.446+08,ddee18ee1107,pacifica2_bms,255,13.5,44.44,44.44
2019-10-05 14:21:56.449+08,2019-10-05 14:21:56.449+08,ddee18ee1107,pacifica2_bms,255,13.4,44.44,44.44
2019-10-05 14:21:58.453+08,2019-10-05 14:21:58.453+08,ddee18ee1107,pacifica2_bms,255,13.4,44.44,44.44
2019-10-05 14:22:00.448+08,2019-10-05 14:22:00.448+08,ddee18ee1107,pacifica2_bms,255,13.5,44.44,44.44
2019-10-05 14:22:02.455+08,2019-10-05 14:22:02.455+08,ddee18ee1107,pacifica2_bms,255,13.5,44.44,44.44
2019-10-05 14:22:04.449+08,2019-10-05 14:22:04.449+08,ddee18ee1107,pacifica2_bms,255,13.5,44.44,44.44
2019-10-05 14:22:06.447+08,2019-10-05 14:22:06.447+08,ddee18ee1107,pacifica2_bms,255,13.4,44.44,44.44
2019-10-05 14:22:08.451+08,2019-10-05 14:22:08.451+08,ddee18ee1107,pacifica2_bms,255,13.4,44.44,44.44
2019-10-05 14:22:10.446+08,2019-10-05 14:22:10.446+08,ddee18ee1107,pacifica2_bms,255,13.4,44.44,44.44
2019-10-05 14:22:12.453+08,2019-10-05 14:22:12.453+08,ddee18ee1107,pacifica2_bms,255,13.4,44.44,44.44
2019-10-05 14:22:14.451+08,2019-10-05 14:22:14.451+08,ddee18ee1107,pacifica2_bms,255,13.4,44.44,44.44
2019-10-05 14:22:16.446+08,2019-10-05 14:22:16.446+08,ddee18ee1107,pacifica2_bms,255,13.4,44.44,44.44
2019-10-05 14:22:18.45+08,2019-10-05 14:22:18.45+08,ddee18ee1107,pacifica2_bms,255,13.3,44.44,44.44
2019-10-05 14:22:20.448+08,2019-10-05 14:22:20.448+08,ddee18ee1107,pacifica2_bms,255,13.4,44.44,44.44
2019-10-05 14:22:22.451+08,2019-10-05 14:22:22.451+08,ddee18ee1107,pacifica2_bms,255,13.4,44.44,44.44
2019-10-05 14:22:24.454+08,2019-10-05 14:22:24.454+08,ddee18ee1107,pacifica2_bms,255,13.4,44.44,44.44
2019-10-05 14:22:26.449+08,2019-10-05 14:22:26.449+08,ddee18ee1107,pacifica2_bms,255,13.3,44.44,44.44
2019-10-05 14:22:28.451+08,2019-10-05 14:22:28.451+08,ddee18ee1107,pacifica2_bms,255,13.4,44.44,44.44
2019-10-05 14:22:30.448+08,2019-10-05 14:22:30.448+08,ddee18ee1107,pacifica2_bms,255,13.3,44.44,44.44
2019-10-05 14:22:32.451+08,2019-10-05 14:22:32.451+08,ddee18ee1107,pacifica2_bms,255,13.3,44.44,44.44
2019-10-05 14:22:34.447+08,2019-10-05 14:22:34.447+08,ddee18ee1107,pacifica2_bms,255,13.3,44.44,44.44
2019-10-05 14:22:36.453+08,2019-10-05 14:22:36.453+08,ddee18ee1107,pacifica2_bms,255,13.3,44.44,44.44
2019-10-05 14:22:38.449+08,2019-10-05 14:22:38.449+08,ddee18ee1107,pacifica2_bms,255,13.3,44.44,44.44
2019-10-05 14:22:40.45+08,2019-10-05 14:22:40.45+08,ddee18ee1107,pacifica2_bms,255,13.3,44.44,44.44
2019-10-05 14:22:42.445+08,2019-10-05 14:22:42.445+08,ddee18ee1107,pacifica2_bms,255,13.3,44.44,44.44
2019-10-05 14:22:44.45+08,2019-10-05 14:22:44.45+08,ddee18ee1107,pacifica2_bms,255,13.3,44.44,44.44
2019-10-05 14:22:46.448+08,2019-10-05 14:22:46.448+08,ddee18ee1107,pacifica2_bms,255,13.3,44.44,44.44
2019-10-05 14:22:48.451+08,2019-10-05 14:22:48.451+08,ddee18ee1107,pacifica2_bms,255,13.3,44.44,44.44
2019-10-05 14:22:50.453+08,2019-10-05 14:22:50.453+08,ddee18ee1107,pacifica2_bms,255,13.3,44.44,44.44
2019-10-05 14:22:52.452+08,2019-10-05 14:22:52.452+08,ddee18ee1107,pacifica2_bms,255,13.3,44.44,44.44
2019-10-05 14:22:54.449+08,2019-10-05 14:22:54.449+08,ddee18ee1107,pacifica2_bms,255,13.4,44.44,44.44
2019-10-05 14:22:56.449+08,2019-10-05 14:22:56.449+08,ddee18ee1107,pacifica2_bms,255,13.4,44.44,44.44
2019-10-05 14:22:58.455+08,2019-10-05 14:22:58.455+08,ddee18ee1107,pacifica2_bms,255,13.4,44.44,44.44
2019-10-05 14:23:00.445+08,2019-10-05 14:23:00.445+08,ddee18ee1107,pacifica2_bms,255,13.5,44.44,44.44
2019-10-05 14:23:02.453+08,2019-10-05 14:23:02.453+08,ddee18ee1107,pacifica2_bms,255,13.5,44.44,44.44
2019-10-05 14:23:04.447+08,2019-10-05 14:23:04.447+08,ddee18ee1107,pacifica2_bms,255,13.4,44.44,44.44
2019-10-05 14:23:06.452+08,2019-10-05 14:23:06.452+08,ddee18ee1107,pacifica2_bms,255,13.4,44.44,44.44
2019-10-05 14:23:08.448+08,2019-10-05 14:23:08.448+08,ddee18ee1107,pacifica2_bms,255,13.4,44.44,44.44
2019-10-05 14:23:10.454+08,2019-10-05 14:23:10.454+08,ddee18ee1107,pacifica2_bms,255,13.5,44.44,44.44
2019-10-05 14:23:12.449+08,2019-10-05 14:23:12.449+08,ddee18ee1107,pacifica2_bms,255,13.5,44.44,44.44
2019-10-05 14:23:14.446+08,2019-10-05 14:23:14.446+08,ddee18ee1107,pacifica2_bms,255,13.5,44.44,44.44
2019-10-05 14:23:16.45+08,2019-10-05 14:23:16.45+08,ddee18ee1107,pacifica2_bms,255,13.5,44.44,44.44
2019-10-05 14:23:18.455+08,2019-10-05 14:23:18.456+08,ddee18ee1107,pacifica2_bms,255,13.5,44.44,44.44
2019-10-05 14:23:20.452+08,2019-10-05 14:23:20.452+08,ddee18ee1107,pacifica2_bms,255,13.5,44.44,44.44
2019-10-05 14:23:22.451+08,2019-10-05 14:23:22.451+08,ddee18ee1107,pacifica2_bms,255,13.5,44.44,44.44
2019-10-05 14:23:24.448+08,2019-10-05 14:23:24.448+08,ddee18ee1107,pacifica2_bms,255,13.5,44.44,44.44
2019-10-05 14:23:26.451+08,2019-10-05 14:23:26.451+08,ddee18ee1107,pacifica2_bms,255,13.5,44.44,44.44
2019-10-05 14:23:28.45+08,2019-10-05 14:23:28.45+08,ddee18ee1107,pacifica2_bms,255,13.5,44.44,44.44
2019-10-05 14:23:30.448+08,2019-10-05 14:23:30.448+08,ddee18ee1107,pacifica2_bms,255,13.5,44.44,44.44
2019-10-05 14:23:32.452+08,2019-10-05 14:23:32.452+08,ddee18ee1107,pacifica2_bms,255,13.5,44.44,44.44
2019-10-05 14:23:34.456+08,2019-10-05 14:23:34.456+08,ddee18ee1107,pacifica2_bms,255,13.5,44.44,44.44
2019-10-05 14:23:36.453+08,2019-10-05 14:23:36.453+08,ddee18ee1107,pacifica2_bms,255,13.5,44.44,44.44
2019-10-05 14:23:38.447+08,2019-10-05 14:23:38.448+08,ddee18ee1107,pacifica2_bms,255,13.5,44.44,44.44
2019-10-05 14:23:40.449+08,2019-10-05 14:23:40.449+08,ddee18ee1107,pacifica2_bms,255,13.5,44.44,44.44
2019-10-05 14:23:42.453+08,2019-10-05 14:23:42.453+08,ddee18ee1107,pacifica2_bms,255,13.5,44.44,44.44
2019-10-05 14:23:44.45+08,2019-10-05 14:23:44.45+08,ddee18ee1107,pacifica2_bms,255,13.5,44.44,44.44
2019-10-05 14:23:46.451+08,2019-10-05 14:23:46.451+08,ddee18ee1107,pacifica2_bms,255,13.5,44.44,44.44
2019-10-05 14:23:48.454+08,2019-10-05 14:23:48.454+08,ddee18ee1107,pacifica2_bms,255,13.5,44.44,44.44
2019-10-05 14:23:50.451+08,2019-10-05 14:23:50.451+08,ddee18ee1107,pacifica2_bms,255,13.5,44.44,44.44
2019-10-05 14:23:52.447+08,2019-10-05 14:23:52.447+08,ddee18ee1107,pacifica2_bms,255,13.5,44.44,44.44
2019-10-05 14:23:54.447+08,2019-10-05 14:23:54.447+08,ddee18ee1107,pacifica2_bms,255,13.5,44.44,44.44
2019-10-05 14:23:56.454+08,2019-10-05 14:23:56.454+08,ddee18ee1107,pacifica2_bms,255,13.5,44.44,44.44
2019-10-05 14:23:58.454+08,2019-10-05 14:23:58.454+08,ddee18ee1107,pacifica2_bms,255,13.5,44.44,44.44
2019-10-05 14:24:00.449+08,2019-10-05 14:24:00.449+08,ddee18ee1107,pacifica2_bms,255,13.5,44.44,44.44
2019-10-05 14:24:02.448+08,2019-10-05 14:24:02.448+08,ddee18ee1107,pacifica2_bms,255,13.5,44.44,44.44
2019-10-05 14:24:04.451+08,2019-10-05 14:24:04.451+08,ddee18ee1107,pacifica2_bms,255,13.5,44.44,44.44
2019-10-05 14:24:06.449+08,2019-10-05 14:24:06.449+08,ddee18ee1107,pacifica2_bms,255,13.5,44.44,44.44
2019-10-05 14:24:08.452+08,2019-10-05 14:24:08.452+08,ddee18ee1107,pacifica2_bms,255,13.5,44.44,44.44
2019-10-05 14:24:10.455+08,2019-10-05 14:24:10.455+08,ddee18ee1107,pacifica2_bms,255,13.5,44.44,44.44
2019-10-05 14:24:12.452+08,2019-10-05 14:24:12.452+08,ddee18ee1107,pacifica2_bms,255,13.5,44.44,44.44
2019-10-05 14:24:14.452+08,2019-10-05 14:24:14.452+08,ddee18ee1107,pacifica2_bms,255,13.5,44.44,44.44
2019-10-05 14:24:16.452+08,2019-10-05 14:24:16.452+08,ddee18ee1107,pacifica2_bms,255,13.5,44.44,44.44
2019-10-05 14:24:18.45+08,2019-10-05 14:24:18.45+08,ddee18ee1107,pacifica2_bms,255,13.5,44.44,44.44
2019-10-05 14:24:20.455+08,2019-10-05 14:24:20.455+08,ddee18ee1107,pacifica2_bms,255,13.5,44.44,44.44
2019-10-05 14:24:22.453+08,2019-10-05 14:24:22.453+08,ddee18ee1107,pacifica2_bms,255,13.5,44.44,44.44
2019-10-05 14:24:24.452+08,2019-10-05 14:24:24.452+08,ddee18ee1107,pacifica2_bms,255,13.5,44.44,44.44
2019-10-05 14:24:26.449+08,2019-10-05 14:24:26.449+08,ddee18ee1107,pacifica2_bms,255,13.5,44.44,44.44
2019-10-05 14:24:28.455+08,2019-10-05 14:24:28.455+08,ddee18ee1107,pacifica2_bms,255,13.5,44.44,44.44
2019-10-05 14:24:30.449+08,2019-10-05 14:24:30.449+08,ddee18ee1107,pacifica2_bms,255,13.5,44.44,44.44
2019-10-05 14:24:32.451+08,2019-10-05 14:24:32.451+08,ddee18ee1107,pacifica2_bms,255,13.5,44.44,44.44
2019-10-05 14:24:34.453+08,2019-10-05 14:24:34.453+08,ddee18ee1107,pacifica2_bms,255,13.5,44.44,44.44
2019-10-05 14:24:36.456+08,2019-10-05 14:24:36.456+08,ddee18ee1107,pacifica2_bms,255,13.5,44.44,44.44
2019-10-05 14:24:38.457+08,2019-10-05 14:24:38.457+08,ddee18ee1107,pacifica2_bms,255,13.5,44.44,44.44
2019-10-05 14:24:40.448+08,2019-10-05 14:24:40.448+08,ddee18ee1107,pacifica2_bms,255,13.5,44.44,44.44
2019-10-05 14:24:42.454+08,2019-10-05 14:24:42.454+08,ddee18ee1107,pacifica2_bms,255,13.4,44.44,44.44
2019-10-05 14:24:44.456+08,2019-10-05 14:24:44.456+08,ddee18ee1107,pacifica2_bms,255,13.4,44.44,44.44
2019-10-05 14:24:46.45+08,2019-10-05 14:24:46.45+08,ddee18ee1107,pacifica2_bms,255,13.4,44.44,44.44
2019-10-05 14:24:48.456+08,2019-10-05 14:24:48.456+08,ddee18ee1107,pacifica2_bms,255,13.4,44.44,44.44
2019-10-05 14:24:50.448+08,2019-10-05 14:24:50.448+08,ddee18ee1107,pacifica2_bms,255,13.4,44.44,44.44
2019-10-05 14:24:52.452+08,2019-10-05 14:24:52.452+08,ddee18ee1107,pacifica2_bms,255,13.4,44.44,44.44
2019-10-05 14:24:54.45+08,2019-10-05 14:24:54.45+08,ddee18ee1107,pacifica2_bms,255,13.4,44.44,44.44
2019-10-05 14:24:56.451+08,2019-10-05 14:24:56.451+08,ddee18ee1107,pacifica2_bms,255,13.4,44.44,44.44
2019-10-05 14:24:58.456+08,2019-10-05 14:24:58.456+08,ddee18ee1107,pacifica2_bms,255,13.4,44.44,44.44
2019-10-05 14:25:00.45+08,2019-10-05 14:25:00.45+08,ddee18ee1107,pacifica2_bms,255,13.4,44.44,44.44
2019-10-05 14:25:02.456+08,2019-10-05 14:25:02.456+08,ddee18ee1107,pacifica2_bms,255,13.4,44.44,44.44
2019-10-05 14:25:04.452+08,2019-10-05 14:25:04.452+08,ddee18ee1107,pacifica2_bms,255,13.4,44.44,44.44
2019-10-05 14:25:06.458+08,2019-10-05 14:25:06.458+08,ddee18ee1107,pacifica2_bms,255,13.4,44.44,44.44
2019-10-05 14:25:08.452+08,2019-10-05 14:25:08.452+08,ddee18ee1107,pacifica2_bms,255,13.3,44.44,44.44
2019-10-05 14:25:10.457+08,2019-10-05 14:25:10.457+08,ddee18ee1107,pacifica2_bms,255,13.4,44.44,44.44
2019-10-05 14:25:12.451+08,2019-10-05 14:25:12.451+08,ddee18ee1107,pacifica2_bms,255,13.4,44.44,44.44
2019-10-05 14:25:14.448+08,2019-10-05 14:25:14.448+08,ddee18ee1107,pacifica2_bms,255,13.4,44.44,44.44
2019-10-05 14:25:16.455+08,2019-10-05 14:25:16.455+08,ddee18ee1107,pacifica2_bms,255,13.4,44.44,44.44
2019-10-05 14:25:18.448+08,2019-10-05 14:25:18.448+08,ddee18ee1107,pacifica2_bms,255,13.4,44.44,44.44
2019-10-05 14:25:20.453+08,2019-10-05 14:25:20.453+08,ddee18ee1107,pacifica2_bms,255,13.3,44.44,44.44
2019-10-05 14:25:22.448+08,2019-10-05 14:25:22.448+08,ddee18ee1107,pacifica2_bms,255,13.3,44.44,44.44
2019-10-05 14:25:24.451+08,2019-10-05 14:25:24.451+08,ddee18ee1107,pacifica2_bms,255,13.3,44.44,44.44
2019-10-05 14:25:26.459+08,2019-10-05 14:25:26.459+08,ddee18ee1107,pacifica2_bms,255,13.3,44.44,44.44
2019-10-05 14:25:28.449+08,2019-10-05 14:25:28.45+08,ddee18ee1107,pacifica2_bms,255,13.3,44.44,44.44
2019-10-05 14:25:30.453+08,2019-10-05 14:25:30.453+08,ddee18ee1107,pacifica2_bms,255,13.3,44.44,44.44
2019-10-05 14:25:32.451+08,2019-10-05 14:25:32.451+08,ddee18ee1107,pacifica2_bms,255,13.3,44.44,44.44
2019-10-05 14:25:34.452+08,2019-10-05 14:25:34.452+08,ddee18ee1107,pacifica2_bms,255,13.3,44.44,44.44
2019-10-05 14:25:36.449+08,2019-10-05 14:25:36.449+08,ddee18ee1107,pacifica2_bms,255,13.3,44.44,44.44
2019-10-05 14:25:38.455+08,2019-10-05 14:25:38.455+08,ddee18ee1107,pacifica2_bms,255,13.3,44.44,44.44
2019-10-05 14:25:40.45+08,2019-10-05 14:25:40.45+08,ddee18ee1107,pacifica2_bms,255,13.3,44.44,44.44
2019-10-05 14:25:42.449+08,2019-10-05 14:25:42.449+08,ddee18ee1107,pacifica2_bms,255,13.3,44.44,44.44
2019-10-05 14:25:44.456+08,2019-10-05 14:25:44.456+08,ddee18ee1107,pacifica2_bms,255,13.4,44.44,44.44
2019-10-05 14:25:46.449+08,2019-10-05 14:25:46.449+08,ddee18ee1107,pacifica2_bms,255,13.4,44.44,44.44
2019-10-05 14:25:48.455+08,2019-10-05 14:25:48.455+08,ddee18ee1107,pacifica2_bms,255,13.4,44.44,44.44
2019-10-05 14:25:50.448+08,2019-10-05 14:25:50.448+08,ddee18ee1107,pacifica2_bms,255,13.4,44.44,44.44
2019-10-05 14:25:52.455+08,2019-10-05 14:25:52.455+08,ddee18ee1107,pacifica2_bms,255,13.4,44.44,44.44
2019-10-05 14:25:54.45+08,2019-10-05 14:25:54.45+08,ddee18ee1107,pacifica2_bms,255,13.3,44.44,44.44
2019-10-05 14:25:56.452+08,2019-10-05 14:25:56.452+08,ddee18ee1107,pacifica2_bms,255,13.4,44.44,44.44
2019-10-05 14:25:58.448+08,2019-10-05 14:25:58.448+08,ddee18ee1107,pacifica2_bms,255,13.4,44.44,44.44
2019-10-05 14:26:00.452+08,2019-10-05 14:26:00.452+08,ddee18ee1107,pacifica2_bms,255,13.4,44.44,44.44
2019-10-05 14:26:02.449+08,2019-10-05 14:26:02.449+08,ddee18ee1107,pacifica2_bms,255,13.4,44.44,44.44
2019-10-05 14:26:04.455+08,2019-10-05 14:26:04.455+08,ddee18ee1107,pacifica2_bms,255,13.4,44.44,44.44
2019-10-05 14:26:06.451+08,2019-10-05 14:26:06.452+08,ddee18ee1107,pacifica2_bms,255,13.4,44.44,44.44
2019-10-05 14:26:08.458+08,2019-10-05 14:26:08.458+08,ddee18ee1107,pacifica2_bms,255,13.4,44.44,44.44
2019-10-05 14:26:10.453+08,2019-10-05 14:26:10.453+08,ddee18ee1107,pacifica2_bms,255,13.4,44.44,44.44
2019-10-05 14:26:12.453+08,2019-10-05 14:26:12.453+08,ddee18ee1107,pacifica2_bms,255,13.4,44.44,44.44
2019-10-05 14:26:14.457+08,2019-10-05 14:26:14.457+08,ddee18ee1107,pacifica2_bms,255,13.5,44.44,44.44
2019-10-05 14:26:16.459+08,2019-10-05 14:26:16.459+08,ddee18ee1107,pacifica2_bms,255,13.4,44.44,44.44
2019-10-05 14:26:18.453+08,2019-10-05 14:26:18.453+08,ddee18ee1107,pacifica2_bms,255,13.4,44.44,44.44
2019-10-05 14:26:20.458+08,2019-10-05 14:26:20.458+08,ddee18ee1107,pacifica2_bms,255,13.4,44.44,44.44
2019-10-05 14:26:22.454+08,2019-10-05 14:26:22.454+08,ddee18ee1107,pacifica2_bms,255,13.4,44.44,44.44
2019-10-05 14:26:24.448+08,2019-10-05 14:26:24.448+08,ddee18ee1107,pacifica2_bms,255,13.4,44.44,44.44
2019-10-05 14:26:26.453+08,2019-10-05 14:26:26.453+08,ddee18ee1107,pacifica2_bms,255,13.5,44.44,44.44
2019-10-05 14:26:28.458+08,2019-10-05 14:26:28.458+08,ddee18ee1107,pacifica2_bms,255,13.5,44.44,44.44
2019-10-05 14:26:30.455+08,2019-10-05 14:26:30.455+08,ddee18ee1107,pacifica2_bms,255,13.5,44.44,44.44
2019-10-05 14:26:32.452+08,2019-10-05 14:26:32.452+08,ddee18ee1107,pacifica2_bms,255,13.5,44.44,44.44
2019-10-05 14:26:34.449+08,2019-10-05 14:26:34.449+08,ddee18ee1107,pacifica2_bms,255,13.5,44.44,44.44
2019-10-05 14:26:36.451+08,2019-10-05 14:26:36.451+08,ddee18ee1107,pacifica2_bms,255,13.5,44.44,44.44
2019-10-05 14:26:38.452+08,2019-10-05 14:26:38.452+08,ddee18ee1107,pacifica2_bms,255,13.5,44.44,44.44
2019-10-05 14:26:40.449+08,2019-10-05 14:26:40.449+08,ddee18ee1107,pacifica2_bms,255,13.5,44.44,44.44
2019-10-05 14:26:42.449+08,2019-10-05 14:26:42.449+08,ddee18ee1107,pacifica2_bms,255,13.5,44.44,44.44
2019-10-05 14:26:44.455+08,2019-10-05 14:26:44.455+08,ddee18ee1107,pacifica2_bms,255,13.5,44.44,44.44
2019-10-05 14:26:46.452+08,2019-10-05 14:26:46.452+08,ddee18ee1107,pacifica2_bms,255,13.5,44.44,44.44
2019-10-05 14:26:48.453+08,2019-10-05 14:26:48.453+08,ddee18ee1107,pacifica2_bms,255,13.5,44.44,44.44
2019-10-05 14:26:50.457+08,2019-10-05 14:26:50.457+08,ddee18ee1107,pacifica2_bms,255,13.5,44.44,44.44
2019-10-05 14:26:52.451+08,2019-10-05 14:26:52.451+08,ddee18ee1107,pacifica2_bms,255,13.5,44.44,44.44
2019-10-05 14:26:54.455+08,2019-10-05 14:26:54.455+08,ddee18ee1107,pacifica2_bms,255,13.5,44.44,44.44
2019-10-05 14:26:56.459+08,2019-10-05 14:26:56.459+08,ddee18ee1107,pacifica2_bms,255,13.5,44.44,44.44
2019-10-05 14:26:58.455+08,2019-10-05 14:26:58.455+08,ddee18ee1107,pacifica2_bms,255,13.5,44.44,44.44
2019-10-05 14:27:00.449+08,2019-10-05 14:27:00.449+08,ddee18ee1107,pacifica2_bms,255,13.5,44.44,44.44
2019-10-05 14:27:02.451+08,2019-10-05 14:27:02.451+08,ddee18ee1107,pacifica2_bms,255,13.5,44.44,44.44
2019-10-05 14:27:04.455+08,2019-10-05 14:27:04.455+08,ddee18ee1107,pacifica2_bms,255,13.5,44.44,44.44
2019-10-05 14:27:06.454+08,2019-10-05 14:27:06.454+08,ddee18ee1107,pacifica2_bms,255,13.5,44.44,44.44
2019-10-05 14:27:08.458+08,2019-10-05 14:27:08.458+08,ddee18ee1107,pacifica2_bms,255,13.5,44.44,44.44
2019-10-05 14:27:10.451+08,2019-10-05 14:27:10.451+08,ddee18ee1107,pacifica2_bms,255,13.5,44.44,44.44
2019-10-05 14:27:12.453+08,2019-10-05 14:27:12.453+08,ddee18ee1107,pacifica2_bms,255,13.4,44.44,44.44
2019-10-05 14:27:14.458+08,2019-10-05 14:27:14.458+08,ddee18ee1107,pacifica2_bms,255,13.4,44.44,44.44
2019-10-05 14:27:16.456+08,2019-10-05 14:27:16.456+08,ddee18ee1107,pacifica2_bms,255,13.4,44.44,44.44
2019-10-05 14:27:18.449+08,2019-10-05 14:27:18.449+08,ddee18ee1107,pacifica2_bms,255,13.5,44.44,44.44
2019-10-05 14:27:20.458+08,2019-10-05 14:27:20.458+08,ddee18ee1107,pacifica2_bms,255,13.5,44.44,44.44
2019-10-05 14:27:22.457+08,2019-10-05 14:27:22.457+08,ddee18ee1107,pacifica2_bms,255,13.5,44.44,44.44
2019-10-05 14:27:24.459+08,2019-10-05 14:27:24.459+08,ddee18ee1107,pacifica2_bms,255,13.4,44.44,44.44
2019-10-05 14:27:26.456+08,2019-10-05 14:27:26.456+08,ddee18ee1107,pacifica2_bms,255,13.4,44.44,44.44
2019-10-05 14:27:28.455+08,2019-10-05 14:27:28.456+08,ddee18ee1107,pacifica2_bms,255,13.4,44.44,44.44
2019-10-05 14:27:30.453+08,2019-10-05 14:27:30.453+08,ddee18ee1107,pacifica2_bms,255,13.4,44.44,44.44
2019-10-05 14:27:32.457+08,2019-10-05 14:27:32.457+08,ddee18ee1107,pacifica2_bms,255,13.4,44.44,44.44
2019-10-05 14:27:34.451+08,2019-10-05 14:27:34.451+08,ddee18ee1107,pacifica2_bms,255,13.4,44.44,44.44
2019-10-05 14:27:36.455+08,2019-10-05 14:27:36.455+08,ddee18ee1107,pacifica2_bms,255,13.4,44.44,44.44
2019-10-05 14:27:38.454+08,2019-10-05 14:27:38.454+08,ddee18ee1107,pacifica2_bms,255,13.4,44.44,44.44
2019-10-05 14:27:40.452+08,2019-10-05 14:27:40.452+08,ddee18ee1107,pacifica2_bms,255,13.4,44.44,44.44
2019-10-05 14:27:42.45+08,2019-10-05 14:27:42.45+08,ddee18ee1107,pacifica2_bms,255,13.4,44.44,44.44
2019-10-05 14:27:44.457+08,2019-10-05 14:27:44.457+08,ddee18ee1107,pacifica2_bms,255,13.4,44.44,44.44
2019-10-05 14:27:46.454+08,2019-10-05 14:27:46.454+08,ddee18ee1107,pacifica2_bms,255,13.4,44.44,44.44
2019-10-05 14:27:48.451+08,2019-10-05 14:27:48.451+08,ddee18ee1107,pacifica2_bms,255,13.4,44.44,44.44
2019-10-05 14:27:50.46+08,2019-10-05 14:27:50.46+08,ddee18ee1107,pacifica2_bms,255,13.4,44.44,44.44
2019-10-05 14:27:52.457+08,2019-10-05 14:27:52.457+08,ddee18ee1107,pacifica2_bms,255,13.4,44.44,44.44
2019-10-05 14:27:54.455+08,2019-10-05 14:27:54.455+08,ddee18ee1107,pacifica2_bms,255,13.4,44.44,44.44
2019-10-05 14:27:56.457+08,2019-10-05 14:27:56.457+08,ddee18ee1107,pacifica2_bms,255,13.3,44.44,44.44
2019-10-05 14:27:58.454+08,2019-10-05 14:27:58.454+08,ddee18ee1107,pacifica2_bms,255,13.3,44.44,44.44
2019-10-05 14:28:00.453+08,2019-10-05 14:28:00.453+08,ddee18ee1107,pacifica2_bms,255,13.3,44.44,44.44
2019-10-05 14:28:02.457+08,2019-10-05 14:28:02.457+08,ddee18ee1107,pacifica2_bms,255,13.4,44.44,44.44
2019-10-05 14:28:04.456+08,2019-10-05 14:28:04.456+08,ddee18ee1107,pacifica2_bms,255,13.4,44.44,44.44
2019-10-05 14:28:06.454+08,2019-10-05 14:28:06.454+08,ddee18ee1107,pacifica2_bms,255,13.3,44.44,44.44
2019-10-05 14:28:08.45+08,2019-10-05 14:28:08.45+08,ddee18ee1107,pacifica2_bms,255,13.3,44.44,44.44
2019-10-05 14:28:10.454+08,2019-10-05 14:28:10.454+08,ddee18ee1107,pacifica2_bms,255,13.3,44.44,44.44
2019-10-05 14:28:12.454+08,2019-10-05 14:28:12.454+08,ddee18ee1107,pacifica2_bms,255,13.3,44.44,44.44
2019-10-05 14:28:14.46+08,2019-10-05 14:28:14.46+08,ddee18ee1107,pacifica2_bms,255,13.3,44.44,44.44
2019-10-05 14:28:16.458+08,2019-10-05 14:28:16.458+08,ddee18ee1107,pacifica2_bms,255,13.3,44.44,44.44
2019-10-05 14:28:18.454+08,2019-10-05 14:28:18.454+08,ddee18ee1107,pacifica2_bms,255,13.3,44.44,44.44
2019-10-05 14:28:20.459+08,2019-10-05 14:28:20.459+08,ddee18ee1107,pacifica2_bms,255,13.3,44.44,44.44
2019-10-05 14:28:22.453+08,2019-10-05 14:28:22.453+08,ddee18ee1107,pacifica2_bms,255,13.3,44.44,44.44
2019-10-05 14:28:24.459+08,2019-10-05 14:28:24.459+08,ddee18ee1107,pacifica2_bms,255,13.3,44.44,44.44
2019-10-05 14:28:26.453+08,2019-10-05 14:28:26.453+08,ddee18ee1107,pacifica2_bms,255,13.3,44.44,44.44
2019-10-05 14:28:28.458+08,2019-10-05 14:28:28.458+08,ddee18ee1107,pacifica2_bms,255,13.3,44.44,44.44
2019-10-05 14:28:30.452+08,2019-10-05 14:28:30.452+08,ddee18ee1107,pacifica2_bms,255,13.3,44.44,44.44
2019-10-05 14:28:32.463+08,2019-10-05 14:28:32.463+08,ddee18ee1107,pacifica2_bms,255,13.4,44.44,44.44
2019-10-05 14:28:34.458+08,2019-10-05 14:28:34.458+08,ddee18ee1107,pacifica2_bms,255,13.4,44.44,44.44
2019-10-05 14:28:36.452+08,2019-10-05 14:28:36.452+08,ddee18ee1107,pacifica2_bms,255,13.4,44.44,44.44
2019-10-05 14:28:38.453+08,2019-10-05 14:28:38.453+08,ddee18ee1107,pacifica2_bms,255,13.4,44.44,44.44
2019-10-05 14:28:40.452+08,2019-10-05 14:28:40.452+08,ddee18ee1107,pacifica2_bms,255,13.4,44.44,44.44
2019-10-05 14:28:42.453+08,2019-10-05 14:28:42.453+08,ddee18ee1107,pacifica2_bms,255,13.4,44.44,44.44
2019-10-05 14:28:44.458+08,2019-10-05 14:28:44.458+08,ddee18ee1107,pacifica2_bms,255,13.4,44.44,44.44
2019-10-05 14:28:46.453+08,2019-10-05 14:28:46.453+08,ddee18ee1107,pacifica2_bms,255,13.4,44.44,44.44
2019-10-05 14:28:48.453+08,2019-10-05 14:28:48.453+08,ddee18ee1107,pacifica2_bms,255,13.4,44.44,44.44
2019-10-05 14:28:50.459+08,2019-10-05 14:28:50.459+08,ddee18ee1107,pacifica2_bms,255,13.4,44.44,44.44
2019-10-05 14:28:52.452+08,2019-10-05 14:28:52.452+08,ddee18ee1107,pacifica2_bms,255,13.4,44.44,44.44
2019-10-05 14:28:54.458+08,2019-10-05 14:28:54.458+08,ddee18ee1107,pacifica2_bms,255,13.4,44.44,44.44
2019-10-05 14:28:56.455+08,2019-10-05 14:28:56.455+08,ddee18ee1107,pacifica2_bms,255,13.4,44.44,44.44
2019-10-05 14:28:58.462+08,2019-10-05 14:28:58.462+08,ddee18ee1107,pacifica2_bms,255,13.4,44.44,44.44
2019-10-05 14:29:00.458+08,2019-10-05 14:29:00.458+08,ddee18ee1107,pacifica2_bms,255,13.4,44.44,44.44
2019-10-05 14:29:02.459+08,2019-10-05 14:29:02.459+08,ddee18ee1107,pacifica2_bms,255,13.4,44.44,44.44
2019-10-05 14:29:04.457+08,2019-10-05 14:29:04.457+08,ddee18ee1107,pacifica2_bms,255,13.4,44.44,44.44
2019-10-05 14:29:06.455+08,2019-10-05 14:29:06.455+08,ddee18ee1107,pacifica2_bms,255,13.4,44.44,44.44
2019-10-05 14:29:08.462+08,2019-10-05 14:29:08.462+08,ddee18ee1107,pacifica2_bms,255,13.4,44.44,44.44
2019-10-05 14:29:10.46+08,2019-10-05 14:29:10.46+08,ddee18ee1107,pacifica2_bms,255,13.4,44.44,44.44
2019-10-05 14:29:12.455+08,2019-10-05 14:29:12.455+08,ddee18ee1107,pacifica2_bms,255,13.4,44.44,44.44
2019-10-05 14:29:14.455+08,2019-10-05 14:29:14.455+08,ddee18ee1107,pacifica2_bms,255,13.4,44.44,44.44
2019-10-05 14:29:16.455+08,2019-10-05 14:29:16.455+08,ddee18ee1107,pacifica2_bms,255,13.4,44.44,44.44
2019-10-05 14:29:18.455+08,2019-10-05 14:29:18.455+08,ddee18ee1107,pacifica2_bms,255,13.4,44.44,44.44
2019-10-05 14:29:20.455+08,2019-10-05 14:29:20.455+08,ddee18ee1107,pacifica2_bms,255,13.4,44.44,44.44
2019-10-05 14:29:22.457+08,2019-10-05 14:29:22.457+08,ddee18ee1107,pacifica2_bms,255,13.4,44.44,44.44
2019-10-05 14:29:24.454+08,2019-10-05 14:29:24.454+08,ddee18ee1107,pacifica2_bms,255,13.4,44.44,44.44
2019-10-05 14:29:26.46+08,2019-10-05 14:29:26.46+08,ddee18ee1107,pacifica2_bms,255,13.4,44.44,44.44
2019-10-05 14:29:28.458+08,2019-10-05 14:29:28.458+08,ddee18ee1107,pacifica2_bms,255,13.4,44.44,44.44
2019-10-05 14:29:30.458+08,2019-10-05 14:29:30.458+08,ddee18ee1107,pacifica2_bms,255,13.4,44.44,44.44
2019-10-05 14:29:32.464+08,2019-10-05 14:29:32.464+08,ddee18ee1107,pacifica2_bms,255,13.4,44.44,44.44
2019-10-05 14:29:34.456+08,2019-10-05 14:29:34.456+08,ddee18ee1107,pacifica2_bms,255,13.4,44.44,44.44
2019-10-05 14:29:36.46+08,2019-10-05 14:29:36.46+08,ddee18ee1107,pacifica2_bms,255,13.4,44.44,44.44
2019-10-05 14:29:38.459+08,2019-10-05 14:29:38.459+08,ddee18ee1107,pacifica2_bms,255,13.4,44.44,44.44
2019-10-05 14:29:40.453+08,2019-10-05 14:29:40.453+08,ddee18ee1107,pacifica2_bms,255,13.4,44.44,44.44
2019-10-05 14:29:42.455+08,2019-10-05 14:29:42.455+08,ddee18ee1107,pacifica2_bms,255,13.4,44.44,44.44
2019-10-05 14:29:44.468+08,2019-10-05 14:29:44.468+08,ddee18ee1107,pacifica2_bms,255,13.4,44.44,44.44
2019-10-05 14:29:46.456+08,2019-10-05 14:29:46.456+08,ddee18ee1107,pacifica2_bms,255,13.4,44.44,44.44
2019-10-05 14:29:48.453+08,2019-10-05 14:29:48.453+08,ddee18ee1107,pacifica2_bms,255,13.4,44.44,44.44
2019-10-05 14:29:50.46+08,2019-10-05 14:29:50.46+08,ddee18ee1107,pacifica2_bms,255,13.4,44.44,44.44
2019-10-05 14:29:52.456+08,2019-10-05 14:29:52.456+08,ddee18ee1107,pacifica2_bms,255,13.4,44.44,44.44
2019-10-05 14:29:54.455+08,2019-10-05 14:29:54.455+08,ddee18ee1107,pacifica2_bms,255,13.4,44.44,44.44
2019-10-05 14:29:56.459+08,2019-10-05 14:29:56.459+08,ddee18ee1107,pacifica2_bms,255,13.4,44.44,44.44
2019-10-05 14:29:58.455+08,2019-10-05 14:29:58.455+08,ddee18ee1107,pacifica2_bms,255,13.4,44.44,44.44
