timestamp,source_time,vehicle_id,dtc,engine_light
2019-10-05 14:20:00.659+08,,ddee18ee1107,"{0,0,0,0}",0
2019-10-05 14:20:01.659+08,,ddee18ee1107,"{0,0,0,0}",0
2019-10-05 14:20:02.659+08,,ddee18ee1107,"{0,0,0,0}",0
2019-10-05 14:20:03.659+08,,ddee18ee1107,"{0,0,0,0}",0
2019-10-05 14:20:04.66+08,,ddee18ee1107,"{0,0,0,0}",0
2019-10-05 14:20:05.659+08,,ddee18ee1107,"{0,0,0,0}",0
2019-10-05 14:20:06.659+08,,ddee18ee1107,"{0,0,0,0}",0
2019-10-05 14:20:07.659+08,,ddee18ee1107,"{0,0,0,0}",0
2019-10-05 14:20:08.659+08,,ddee18ee1107,"{0,0,0,0}",0
2019-10-05 14:20:09.659+08,,ddee18ee1107,"{0,0,0,0}",0
2019-10-05 14:20:10.659+08,,ddee18ee1107,"{0,0,0,0}",0
2019-10-05 14:20:11.66+08,,ddee18ee1107,"{0,0,0,0}",0
2019-10-05 14:20:12.66+08,,ddee18ee1107,"{0,0,0,0}",0
2019-10-05 14:20:13.66+08,,ddee18ee1107,"{0,0,0,0}",0
2019-10-05 14:20:14.66+08,,ddee18ee1107,"{0,0,0,0}",0
2019-10-05 14:20:15.66+08,,ddee18ee1107,"{0,0,0,0}",0
2019-10-05 14:20:16.66+08,,ddee18ee1107,"{0,0,0,0}",0
2019-10-05 14:20:17.66+08,,ddee18ee1107,"{0,0,0,0}",0
2019-10-05 14:20:18.66+08,,ddee18ee1107,"{0,0,0,0}",0
2019-10-05 14:20:19.66+08,,ddee18ee1107,"{0,0,0,0}",0
2019-10-05 14:20:20.661+08,,ddee18ee1107,"{0,0,0,0}",0
2019-10-05 14:20:21.661+08,,ddee18ee1107,"{0,0,0,0}",0
2019-10-05 14:20:22.661+08,,ddee18ee1107,"{0,0,0,0}",0
2019-10-05 14:20:23.661+08,,ddee18ee1107,"{0,0,0,0}",0
2019-10-05 14:20:24.661+08,,ddee18ee1107,"{0,0,0,0}",0
2019-10-05 14:20:25.661+08,,ddee18ee1107,"{0,0,0,0}",0
2019-10-05 14:20:26.661+08,,ddee18ee1107,"{0,0,0,0}",0
2019-10-05 14:20:27.661+08,,ddee18ee1107,"{0,0,0,0}",0
2019-10-05 14:20:28.662+08,,ddee18ee1107,"{0,0,0,0}",0
2019-10-05 14:20:29.661+08,,ddee18ee1107,"{0,0,0,0}",0
2019-10-05 14:20:30.662+08,,ddee18ee1107,"{0,0,0,0}",0
2019-10-05 14:20:31.662+08,,ddee18ee1107,"{0,0,0,0}",0
2019-10-05 14:20:32.662+08,,ddee18ee1107,"{0,0,0,0}",0
2019-10-05 14:20:33.662+08,,ddee18ee1107,"{0,0,0,0}",0
2019-10-05 14:20:34.662+08,,ddee18ee1107,"{0,0,0,0}",0
2019-10-05 14:20:35.662+08,,ddee18ee1107,"{0,0,0,0}",0
2019-10-05 14:20:36.662+08,,ddee18ee1107,"{0,0,0,0}",0
2019-10-05 14:20:37.662+08,,ddee18ee1107,"{0,0,0,0}",0
2019-10-05 14:20:38.662+08,,ddee18ee1107,"{0,0,0,0}",0
2019-10-05 14:20:39.662+08,,ddee18ee1107,"{0,0,0,0}",0
2019-10-05 14:20:40.662+08,,ddee18ee1107,"{0,0,0,0}",0
2019-10-05 14:20:41.663+08,,ddee18ee1107,"{0,0,0,0}",0
2019-10-05 14:20:42.663+08,,ddee18ee1107,"{0,0,0,0}",0
2019-10-05 14:20:43.663+08,,ddee18ee1107,"{0,0,0,0}",0
2019-10-05 14:20:44.664+08,,ddee18ee1107,"{0,0,0,0}",0
2019-10-05 14:20:45.665+08,,ddee18ee1107,"{0,0,0,0}",0
2019-10-05 14:20:46.663+08,,ddee18ee1107,"{0,0,0,0}",0
2019-10-05 14:20:47.663+08,,ddee18ee1107,"{0,0,0,0}",0
2019-10-05 14:20:48.663+08,,ddee18ee1107,"{0,0,0,0}",0
2019-10-05 14:20:49.664+08,,ddee18ee1107,"{0,0,0,0}",0
2019-10-05 14:20:50.664+08,,ddee18ee1107,"{0,0,0,0}",0
2019-10-05 14:20:51.664+08,,ddee18ee1107,"{0,0,0,0}",0
2019-10-05 14:20:52.664+08,,ddee18ee1107,"{0,0,0,0}",0
2019-10-05 14:20:53.665+08,,ddee18ee1107,"{0,0,0,0}",0
2019-10-05 14:20:54.665+08,,ddee18ee1107,"{0,0,0,0}",0
2019-10-05 14:20:55.665+08,,ddee18ee1107,"{0,0,0,0}",0
2019-10-05 14:20:56.665+08,,ddee18ee1107,"{0,0,0,0}",0
2019-10-05 14:20:57.665+08,,ddee18ee1107,"{0,0,0,0}",0
2019-10-05 14:20:58.665+08,,ddee18ee1107,"{0,0,0,0}",0
2019-10-05 14:20:59.665+08,,ddee18ee1107,"{0,0,0,0}",0
2019-10-05 14:21:00.665+08,,ddee18ee1107,"{0,0,0,0}",0
2019-10-05 14:21:01.665+08,,ddee18ee1107,"{0,0,0,0}",0
2019-10-05 14:21:02.665+08,,ddee18ee1107,"{0,0,0,0}",0
2019-10-05 14:21:03.665+08,,ddee18ee1107,"{0,0,0,0}",0
2019-10-05 14:21:04.665+08,,ddee18ee1107,"{0,0,0,0}",0
2019-10-05 14:21:05.665+08,,ddee18ee1107,"{0,0,0,0}",0
2019-10-05 14:21:06.665+08,,ddee18ee1107,"{0,0,0,0}",0
2019-10-05 14:21:07.666+08,,ddee18ee1107,"{0,0,0,0}",0
2019-10-05 14:21:08.666+08,,ddee18ee1107,"{0,0,0,0}",0
2019-10-05 14:21:09.666+08,,ddee18ee1107,"{0,0,0,0}",0
2019-10-05 14:21:10.666+08,,ddee18ee1107,"{0,0,0,0}",0
2019-10-05 14:21:11.666+08,,ddee18ee1107,"{0,0,0,0}",0
2019-10-05 14:21:12.667+08,,ddee18ee1107,"{0,0,0,0}",0
2019-10-05 14:21:13.666+08,,ddee18ee1107,"{0,0,0,0}",0
2019-10-05 14:21:14.666+08,,ddee18ee1107,"{0,0,0,0}",0
2019-10-05 14:21:15.666+08,,ddee18ee1107,"{0,0,0,0}",0
2019-10-05 14:21:16.666+08,,ddee18ee1107,"{0,0,0,0}",0
2019-10-05 14:21:17.666+08,,ddee18ee1107,"{0,0,0,0}",0
2019-10-05 14:21:18.667+08,,ddee18ee1107,"{0,0,0,0}",0
2019-10-05 14:21:19.667+08,,ddee18ee1107,"{0,0,0,0}",0
2019-10-05 14:21:20.667+08,,ddee18ee1107,"{0,0,0,0}",0
2019-10-05 14:21:21.668+08,,ddee18ee1107,"{0,0,0,0}",0
2019-10-05 14:21:22.667+08,,ddee18ee1107,"{0,0,0,0}",0
2019-10-05 14:21:23.667+08,,ddee18ee1107,"{0,0,0,0}",0
2019-10-05 14:21:24.667+08,,ddee18ee1107,"{0,0,0,0}",0
2019-10-05 14:21:25.667+08,,ddee18ee1107,"{0,0,0,0}",0
2019-10-05 14:21:26.667+08,,ddee18ee1107,"{0,0,0,0}",0
2019-10-05 14:21:27.668+08,,ddee18ee1107,"{0,0,0,0}",0
2019-10-05 14:21:28.668+08,,ddee18ee1107,"{0,0,0,0}",0
2019-10-05 14:21:29.668+08,,ddee18ee1107,"{0,0,0,0}",0
2019-10-05 14:21:30.668+08,,ddee18ee1107,"{0,0,0,0}",0
2019-10-05 14:21:31.668+08,,ddee18ee1107,"{0,0,0,0}",0
2019-10-05 14:21:32.668+08,,ddee18ee1107,"{0,0,0,0}",0
2019-10-05 14:21:33.67+08,,ddee18ee1107,"{0,0,0,0}",0
2019-10-05 14:21:34.669+08,,ddee18ee1107,"{0,0,0,0}",0
2019-10-05 14:21:35.668+08,,ddee18ee1107,"{0,0,0,0}",0
2019-10-05 14:21:36.669+08,,ddee18ee1107,"{0,0,0,0}",0
2019-10-05 14:21:37.669+08,,ddee18ee1107,"{0,0,0,0}",0
2019-10-05 14:21:38.669+08,,ddee18ee1107,"{0,0,0,0}",0
2019-10-05 14:21:39.669+08,,ddee18ee1107,"{0,0,0,0}",0
2019-10-05 14:21:40.669+08,,ddee18ee1107,"{0,0,0,0}",0
2019-10-05 14:21:41.67+08,,ddee18ee1107,"{0,0,0,0}",0
2019-10-05 14:21:42.669+08,,ddee18ee1107,"{0,0,0,0}",0
2019-10-05 14:21:43.669+08,,ddee18ee1107,"{0,0,0,0}",0
2019-10-05 14:21:44.671+08,,ddee18ee1107,"{0,0,0,0}",0
2019-10-05 14:21:45.669+08,,ddee18ee1107,"{0,0,0,0}",0
2019-10-05 14:21:46.67+08,,ddee18ee1107,"{0,0,0,0}",0
2019-10-05 14:21:47.67+08,,ddee18ee1107,"{0,0,0,0}",0
2019-10-05 14:21:48.67+08,,ddee18ee1107,"{0,0,0,0}",0
2019-10-05 14:21:49.67+08,,ddee18ee1107,"{0,0,0,0}",0
2019-10-05 14:21:50.67+08,,ddee18ee1107,"{0,0,0,0}",0
2019-10-05 14:21:51.67+08,,ddee18ee1107,"{0,0,0,0}",0
2019-10-05 14:21:52.67+08,,ddee18ee1107,"{0,0,0,0}",0
2019-10-05 14:21:53.671+08,,ddee18ee1107,"{0,0,0,0}",0
2019-10-05 14:21:54.671+08,,ddee18ee1107,"{0,0,0,0}",0
2019-10-05 14:21:55.67+08,,ddee18ee1107,"{0,0,0,0}",0
2019-10-05 14:21:56.671+08,,ddee18ee1107,"{0,0,0,0}",0
2019-10-05 14:21:57.671+08,,ddee18ee1107,"{0,0,0,0}",0
2019-10-05 14:21:58.671+08,,ddee18ee1107,"{0,0,0,0}",0
2019-10-05 14:21:59.671+08,,ddee18ee1107,"{0,0,0,0}",0
2019-10-05 14:22:00.671+08,,ddee18ee1107,"{0,0,0,0}",0
2019-10-05 14:22:01.671+08,,ddee18ee1107,"{0,0,0,0}",0
2019-10-05 14:22:02.672+08,,ddee18ee1107,"{0,0,0,0}",0
2019-10-05 14:22:03.671+08,,ddee18ee1107,"{0,0,0,0}",0
2019-10-05 14:22:04.672+08,,ddee18ee1107,"{0,0,0,0}",0
2019-10-05 14:22:05.672+08,,ddee18ee1107,"{0,0,0,0}",0
2019-10-05 14:22:06.672+08,,ddee18ee1107,"{0,0,0,0}",0
2019-10-05 14:22:07.673+08,,ddee18ee1107,"{0,0,0,0}",0
2019-10-05 14:22:08.674+08,,ddee18ee1107,"{0,0,0,0}",0
2019-10-05 14:22:09.673+08,,ddee18ee1107,"{0,0,0,0}",0
2019-10-05 14:22:10.673+08,,ddee18ee1107,"{0,0,0,0}",0
2019-10-05 14:22:11.673+08,,ddee18ee1107,"{0,0,0,0}",0
2019-10-05 14:22:12.673+08,,ddee18ee1107,"{0,0,0,0}",0
2019-10-05 14:22:13.673+08,,ddee18ee1107,"{0,0,0,0}",0
2019-10-05 14:22:14.673+08,,ddee18ee1107,"{0,0,0,0}",0
2019-10-05 14:22:15.673+08,,ddee18ee1107,"{0,0,0,0}",0
2019-10-05 14:22:16.673+08,,ddee18ee1107,"{0,0,0,0}",0
2019-10-05 14:22:17.673+08,,ddee18ee1107,"{0,0,0,0}",0
2019-10-05 14:22:18.673+08,,ddee18ee1107,"{0,0,0,0}",0
2019-10-05 14:22:19.673+08,,ddee18ee1107,"{0,0,0,0}",0
2019-10-05 14:22:20.674+08,,ddee18ee1107,"{0,0,0,0}",0
2019-10-05 14:22:21.673+08,,ddee18ee1107,"{0,0,0,0}",0
2019-10-05 14:22:22.673+08,,ddee18ee1107,"{0,0,0,0}",0
2019-10-05 14:22:23.673+08,,ddee18ee1107,"{0,0,0,0}",0
2019-10-05 14:22:24.674+08,,ddee18ee1107,"{0,0,0,0}",0
2019-10-05 14:22:25.674+08,,ddee18ee1107,"{0,0,0,0}",0
2019-10-05 14:22:26.674+08,,ddee18ee1107,"{0,0,0,0}",0
2019-10-05 14:22:27.674+08,,ddee18ee1107,"{0,0,0,0}",0
2019-10-05 14:22:28.677+08,,ddee18ee1107,"{0,0,0,0}",0
2019-10-05 14:22:29.676+08,,ddee18ee1107,"{0,0,0,0}",0
2019-10-05 14:22:30.674+08,,ddee18ee1107,"{0,0,0,0}",0
2019-10-05 14:22:31.675+08,,ddee18ee1107,"{0,0,0,0}",0
2019-10-05 14:22:32.674+08,,ddee18ee1107,"{0,0,0,0}",0
2019-10-05 14:22:33.675+08,,ddee18ee1107,"{0,0,0,0}",0
2019-10-05 14:22:34.675+08,,ddee18ee1107,"{0,0,0,0}",0
2019-10-05 14:22:35.675+08,,ddee18ee1107,"{0,0,0,0}",0
2019-10-05 14:22:36.676+08,,ddee18ee1107,"{0,0,0,0}",0
2019-10-05 14:22:37.675+08,,ddee18ee1107,"{0,0,0,0}",0
2019-10-05 14:22:38.676+08,,ddee18ee1107,"{0,0,0,0}",0
2019-10-05 14:22:39.676+08,,ddee18ee1107,"{0,0,0,0}",0
2019-10-05 14:22:40.676+08,,ddee18ee1107,"{0,0,0,0}",0
2019-10-05 14:22:41.676+08,,ddee18ee1107,"{0,0,0,0}",0
2019-10-05 14:22:42.676+08,,ddee18ee1107,"{0,0,0,0}",0
2019-10-05 14:22:43.676+08,,ddee18ee1107,"{0,0,0,0}",0
2019-10-05 14:22:44.677+08,,ddee18ee1107,"{0,0,0,0}",0
2019-10-05 14:22:45.676+08,,ddee18ee1107,"{0,0,0,0}",0
2019-10-05 14:22:46.676+08,,ddee18ee1107,"{0,0,0,0}",0
2019-10-05 14:22:47.676+08,,ddee18ee1107,"{0,0,0,0}",0
2019-10-05 14:22:48.676+08,,ddee18ee1107,"{0,0,0,0}",0
2019-10-05 14:22:49.676+08,,ddee18ee1107,"{0,0,0,0}",0
2019-10-05 14:22:50.676+08,,ddee18ee1107,"{0,0,0,0}",0
2019-10-05 14:22:51.676+08,,ddee18ee1107,"{0,0,0,0}",0
2019-10-05 14:22:52.677+08,,ddee18ee1107,"{0,0,0,0}",0
2019-10-05 14:22:53.676+08,,ddee18ee1107,"{0,0,0,0}",0
2019-10-05 14:22:54.677+08,,ddee18ee1107,"{0,0,0,0}",0
2019-10-05 14:22:55.677+08,,ddee18ee1107,"{0,0,0,0}",0
2019-10-05 14:22:56.677+08,,ddee18ee1107,"{0,0,0,0}",0
2019-10-05 14:22:57.677+08,,ddee18ee1107,"{0,0,0,0}",0
2019-10-05 14:22:58.677+08,,ddee18ee1107,"{0,0,0,0}",0
2019-10-05 14:22:59.677+08,,ddee18ee1107,"{0,0,0,0}",0
2019-10-05 14:23:00.677+08,,ddee18ee1107,"{0,0,0,0}",0
2019-10-05 14:23:01.677+08,,ddee18ee1107,"{0,0,0,0}",0
2019-10-05 14:23:02.677+08,,ddee18ee1107,"{0,0,0,0}",0
2019-10-05 14:23:03.678+08,,ddee18ee1107,"{0,0,0,0}",0
2019-10-05 14:23:04.678+08,,ddee18ee1107,"{0,0,0,0}",0
2019-10-05 14:23:05.678+08,,ddee18ee1107,"{0,0,0,0}",0
2019-10-05 14:23:06.678+08,,ddee18ee1107,"{0,0,0,0}",0
2019-10-05 14:23:07.678+08,,ddee18ee1107,"{0,0,0,0}",0
2019-10-05 14:23:08.678+08,,ddee18ee1107,"{0,0,0,0}",0
2019-10-05 14:23:09.678+08,,ddee18ee1107,"{0,0,0,0}",0
2019-10-05 14:23:10.678+08,,ddee18ee1107,"{0,0,0,0}",0
2019-10-05 14:23:11.678+08,,ddee18ee1107,"{0,0,0,0}",0
2019-10-05 14:23:12.679+08,,ddee18ee1107,"{0,0,0,0}",0
2019-10-05 14:23:13.679+08,,ddee18ee1107,"{0,0,0,0}",0
2019-10-05 14:23:14.679+08,,ddee18ee1107,"{0,0,0,0}",0
2019-10-05 14:23:15.679+08,,ddee18ee1107,"{0,0,0,0}",0
2019-10-05 14:23:16.68+08,,ddee18ee1107,"{0,0,0,0}",0
2019-10-05 14:23:17.679+08,,ddee18ee1107,"{0,0,0,0}",0
2019-10-05 14:23:18.679+08,,ddee18ee1107,"{0,0,0,0}",0
2019-10-05 14:23:19.681+08,,ddee18ee1107,"{0,0,0,0}",0
2019-10-05 14:23:20.681+08,,ddee18ee1107,"{0,0,0,0}",0
2019-10-05 14:23:21.68+08,,ddee18ee1107,"{0,0,0,0}",0
2019-10-05 14:23:22.681+08,,ddee18ee1107,"{0,0,0,0}",0
2019-10-05 14:23:23.68+08,,ddee18ee1107,"{0,0,0,0}",0
2019-10-05 14:23:24.681+08,,ddee18ee1107,"{0,0,0,0}",0
2019-10-05 14:23:25.682+08,,ddee18ee1107,"{0,0,0,0}",0
2019-10-05 14:23:26.681+08,,ddee18ee1107,"{0,0,0,0}",0
2019-10-05 14:23:27.682+08,,ddee18ee1107,"{0,0,0,0}",0
2019-10-05 14:23:28.681+08,,ddee18ee1107,"{0,0,0,0}",0
2019-10-05 14:23:29.681+08,,ddee18ee1107,"{0,0,0,0}",0
2019-10-05 14:23:30.682+08,,ddee18ee1107,"{0,0,0,0}",0
2019-10-05 14:23:31.681+08,,ddee18ee1107,"{0,0,0,0}",0
2019-10-05 14:23:32.681+08,,ddee18ee1107,"{0,0,0,0}",0
2019-10-05 14:23:33.682+08,,ddee18ee1107,"{0,0,0,0}",0
2019-10-05 14:23:34.682+08,,ddee18ee1107,"{0,0,0,0}",0
2019-10-05 14:23:35.682+08,,ddee18ee1107,"{0,0,0,0}",0
2019-10-05 14:23:36.682+08,,ddee18ee1107,"{0,0,0,0}",0
2019-10-05 14:23:37.682+08,,ddee18ee1107,"{0,0,0,0}",0
2019-10-05 14:23:38.682+08,,ddee18ee1107,"{0,0,0,0}",0
2019-10-05 14:23:39.682+08,,ddee18ee1107,"{0,0,0,0}",0
2019-10-05 14:23:40.682+08,,ddee18ee1107,"{0,0,0,0}",0
2019-10-05 14:23:41.682+08,,ddee18ee1107,"{0,0,0,0}",0
2019-10-05 14:23:42.682+08,,ddee18ee1107,"{0,0,0,0}",0
2019-10-05 14:23:43.682+08,,ddee18ee1107,"{0,0,0,0}",0
2019-10-05 14:23:44.682+08,,ddee18ee1107,"{0,0,0,0}",0
2019-10-05 14:23:45.682+08,,ddee18ee1107,"{0,0,0,0}",0
2019-10-05 14:23:46.682+08,,ddee18ee1107,"{0,0,0,0}",0
2019-10-05 14:23:47.683+08,,ddee18ee1107,"{0,0,0,0}",0
2019-10-05 14:23:48.683+08,,ddee18ee1107,"{0,0,0,0}",0
2019-10-05 14:23:49.683+08,,ddee18ee1107,"{0,0,0,0}",0
2019-10-05 14:23:50.683+08,,ddee18ee1107,"{0,0,0,0}",0
2019-10-05 14:23:51.683+08,,ddee18ee1107,"{0,0,0,0}",0
2019-10-05 14:23:52.683+08,,ddee18ee1107,"{0,0,0,0}",0
2019-10-05 14:23:53.683+08,,ddee18ee1107,"{0,0,0,0}",0
2019-10-05 14:23:54.683+08,,ddee18ee1107,"{0,0,0,0}",0
2019-10-05 14:23:55.683+08,,ddee18ee1107,"{0,0,0,0}",0
2019-10-05 14:23:56.683+08,,ddee18ee1107,"{0,0,0,0}",0
2019-10-05 14:23:57.683+08,,ddee18ee1107,"{0,0,0,0}",0
2019-10-05 14:23:58.684+08,,ddee18ee1107,"{0,0,0,0}",0
2019-10-05 14:23:59.684+08,,ddee18ee1107,"{0,0,0,0}",0
2019-10-05 14:24:00.684+08,,ddee18ee1107,"{0,0,0,0}",0
2019-10-05 14:24:01.684+08,,ddee18ee1107,"{0,0,0,0}",0
2019-10-05 14:24:02.684+08,,ddee18ee1107,"{0,0,0,0}",0
2019-10-05 14:24:03.684+08,,ddee18ee1107,"{0,0,0,0}",0
2019-10-05 14:24:04.684+08,,ddee18ee1107,"{0,0,0,0}",0
2019-10-05 14:24:05.684+08,,ddee18ee1107,"{0,0,0,0}",0
2019-10-05 14:24:06.684+08,,ddee18ee1107,"{0,0,0,0}",0
2019-10-05 14:24:07.684+08,,ddee18ee1107,"{0,0,0,0}",0
2019-10-05 14:24:08.684+08,,ddee18ee1107,"{0,0,0,0}",0
2019-10-05 14:24:09.685+08,,ddee18ee1107,"{0,0,0,0}",0
2019-10-05 14:24:10.685+08,,ddee18ee1107,"{0,0,0,0}",0
2019-10-05 14:24:11.685+08,,ddee18ee1107,"{0,0,0,0}",0
2019-10-05 14:24:12.685+08,,ddee18ee1107,"{0,0,0,0}",0
2019-10-05 14:24:13.685+08,,ddee18ee1107,"{0,0,0,0}",0
2019-10-05 14:24:14.685+08,,ddee18ee1107,"{0,0,0,0}",0
2019-10-05 14:24:15.685+08,,ddee18ee1107,"{0,0,0,0}",0
2019-10-05 14:24:16.685+08,,ddee18ee1107,"{0,0,0,0}",0
2019-10-05 14:24:17.685+08,,ddee18ee1107,"{0,0,0,0}",0
2019-10-05 14:24:18.685+08,,ddee18ee1107,"{0,0,0,0}",0
2019-10-05 14:24:19.685+08,,ddee18ee1107,"{0,0,0,0}",0
2019-10-05 14:24:20.686+08,,ddee18ee1107,"{0,0,0,0}",0
2019-10-05 14:24:21.686+08,,ddee18ee1107,"{0,0,0,0}",0
2019-10-05 14:24:22.686+08,,ddee18ee1107,"{0,0,0,0}",0
2019-10-05 14:24:23.686+08,,ddee18ee1107,"{0,0,0,0}",0
2019-10-05 14:24:24.687+08,,ddee18ee1107,"{0,0,0,0}",0
2019-10-05 14:24:25.686+08,,ddee18ee1107,"{0,0,0,0}",0
2019-10-05 14:24:26.686+08,,ddee18ee1107,"{0,0,0,0}",0
2019-10-05 14:24:27.687+08,,ddee18ee1107,"{0,0,0,0}",0
2019-10-05 14:24:28.686+08,,ddee18ee1107,"{0,0,0,0}",0
2019-10-05 14:24:29.687+08,,ddee18ee1107,"{0,0,0,0}",0
2019-10-05 14:24:30.687+08,,ddee18ee1107,"{0,0,0,0}",0
2019-10-05 14:24:31.687+08,,ddee18ee1107,"{0,0,0,0}",0
2019-10-05 14:24:32.687+08,,ddee18ee1107,"{0,0,0,0}",0
2019-10-05 14:24:33.689+08,,ddee18ee1107,"{0,0,0,0}",0
2019-10-05 14:24:34.688+08,,ddee18ee1107,"{0,0,0,0}",0
2019-10-05 14:24:35.687+08,,ddee18ee1107,"{0,0,0,0}",0
2019-10-05 14:24:36.689+08,,ddee18ee1107,"{0,0,0,0}",0
2019-10-05 14:24:37.688+08,,ddee18ee1107,"{0,0,0,0}",0
2019-10-05 14:24:38.688+08,,ddee18ee1107,"{0,0,0,0}",0
2019-10-05 14:24:39.689+08,,ddee18ee1107,"{0,0,0,0}",0
2019-10-05 14:24:40.689+08,,ddee18ee1107,"{0,0,0,0}",0
2019-10-05 14:24:41.689+08,,ddee18ee1107,"{0,0,0,0}",0
2019-10-05 14:24:42.689+08,,ddee18ee1107,"{0,0,0,0}",0
2019-10-05 14:24:43.689+08,,ddee18ee1107,"{0,0,0,0}",0
2019-10-05 14:24:44.689+08,,ddee18ee1107,"{0,0,0,0}",0
2019-10-05 14:24:45.689+08,,ddee18ee1107,"{0,0,0,0}",0
2019-10-05 14:24:46.689+08,,ddee18ee1107,"{0,0,0,0}",0
2019-10-05 14:24:47.689+08,,ddee18ee1107,"{0,0,0,0}",0
2019-10-05 14:24:48.689+08,,ddee18ee1107,"{0,0,0,0}",0
2019-10-05 14:24:49.689+08,,ddee18ee1107,"{0,0,0,0}",0
2019-10-05 14:24:50.689+08,,ddee18ee1107,"{0,0,0,0}",0
2019-10-05 14:24:51.689+08,,ddee18ee1107,"{0,0,0,0}",0
2019-10-05 14:24:52.689+08,,ddee18ee1107,"{0,0,0,0}",0
2019-10-05 14:24:53.689+08,,ddee18ee1107,"{0,0,0,0}",0
2019-10-05 14:24:54.69+08,,ddee18ee1107,"{0,0,0,0}",0
2019-10-05 14:24:55.689+08,,ddee18ee1107,"{0,0,0,0}",0
2019-10-05 14:24:56.69+08,,ddee18ee1107,"{0,0,0,0}",0
2019-10-05 14:24:57.691+08,,ddee18ee1107,"{0,0,0,0}",0
2019-10-05 14:24:58.69+08,,ddee18ee1107,"{0,0,0,0}",0
2019-10-05 14:24:59.69+08,,ddee18ee1107,"{0,0,0,0}",0
2019-10-05 14:25:00.69+08,,ddee18ee1107,"{0,0,0,0}",0
2019-10-05 14:25:01.69+08,,ddee18ee1107,"{0,0,0,0}",0
2019-10-05 14:25:02.691+08,,ddee18ee1107,"{0,0,0,0}",0
2019-10-05 14:25:03.691+08,,ddee18ee1107,"{0,0,0,0}",0
2019-10-05 14:25:04.69+08,,ddee18ee1107,"{0,0,0,0}",0
2019-10-05 14:25:05.69+08,,ddee18ee1107,"{0,0,0,0}",0
2019-10-05 14:25:06.692+08,,ddee18ee1107,"{0,0,0,0}",0
2019-10-05 14:25:07.691+08,,ddee18ee1107,"{0,0,0,0}",0
2019-10-05 14:25:08.691+08,,ddee18ee1107,"{0,0,0,0}",0
2019-10-05 14:25:09.691+08,,ddee18ee1107,"{0,0,0,0}",0
2019-10-05 14:25:10.691+08,,ddee18ee1107,"{0,0,0,0}",0
2019-10-05 14:25:11.691+08,,ddee18ee1107,"{0,0,0,0}",0
2019-10-05 14:25:12.691+08,,ddee18ee1107,"{0,0,0,0}",0
2019-10-05 14:25:13.691+08,,ddee18ee1107,"{0,0,0,0}",0
2019-10-05 14:25:14.692+08,,ddee18ee1107,"{0,0,0,0}",0
2019-10-05 14:25:15.692+08,,ddee18ee1107,"{0,0,0,0}",0
2019-10-05 14:25:16.692+08,,ddee18ee1107,"{0,0,0,0}",0
2019-10-05 14:25:17.692+08,,ddee18ee1107,"{0,0,0,0}",0
2019-10-05 14:25:18.692+08,,ddee18ee1107,"{0,0,0,0}",0
2019-10-05 14:25:19.692+08,,ddee18ee1107,"{0,0,0,0}",0
2019-10-05 14:25:20.692+08,,ddee18ee1107,"{0,0,0,0}",0
2019-10-05 14:25:21.692+08,,ddee18ee1107,"{0,0,0,0}",0
2019-10-05 14:25:22.693+08,,ddee18ee1107,"{0,0,0,0}",0
2019-10-05 14:25:23.693+08,,ddee18ee1107,"{0,0,0,0}",0
2019-10-05 14:25:24.693+08,,ddee18ee1107,"{0,0,0,0}",0
2019-10-05 14:25:25.692+08,,ddee18ee1107,"{0,0,0,0}",0
2019-10-05 14:25:26.693+08,,ddee18ee1107,"{0,0,0,0}",0
2019-10-05 14:25:27.693+08,,ddee18ee1107,"{0,0,0,0}",0
2019-10-05 14:25:28.693+08,,ddee18ee1107,"{0,0,0,0}",0
2019-10-05 14:25:29.693+08,,ddee18ee1107,"{0,0,0,0}",0
2019-10-05 14:25:30.693+08,,ddee18ee1107,"{0,0,0,0}",0
2019-10-05 14:25:31.693+08,,ddee18ee1107,"{0,0,0,0}",0
2019-10-05 14:25:32.693+08,,ddee18ee1107,"{0,0,0,0}",0
2019-10-05 14:25:33.693+08,,ddee18ee1107,"{0,0,0,0}",0
2019-10-05 14:25:34.693+08,,ddee18ee1107,"{0,0,0,0}",0
2019-10-05 14:25:35.694+08,,ddee18ee1107,"{0,0,0,0}",0
2019-10-05 14:25:36.694+08,,ddee18ee1107,"{0,0,0,0}",0
2019-10-05 14:25:37.694+08,,ddee18ee1107,"{0,0,0,0}",0
2019-10-05 14:25:38.694+08,,ddee18ee1107,"{0,0,0,0}",0
2019-10-05 14:25:39.694+08,,ddee18ee1107,"{0,0,0,0}",0
2019-10-05 14:25:40.694+08,,ddee18ee1107,"{0,0,0,0}",0
2019-10-05 14:25:41.694+08,,ddee18ee1107,"{0,0,0,0}",0
2019-10-05 14:25:42.694+08,,ddee18ee1107,"{0,0,0,0}",0
2019-10-05 14:25:43.694+08,,ddee18ee1107,"{0,0,0,0}",0
2019-10-05 14:25:44.694+08,,ddee18ee1107,"{0,0,0,0}",0
2019-10-05 14:25:45.695+08,,ddee18ee1107,"{0,0,0,0}",0
2019-10-05 14:25:46.695+08,,ddee18ee1107,"{0,0,0,0}",0
2019-10-05 14:25:47.695+08,,ddee18ee1107,"{0,0,0,0}",0
2019-10-05 14:25:48.695+08,,ddee18ee1107,"{0,0,0,0}",0
2019-10-05 14:25:49.695+08,,ddee18ee1107,"{0,0,0,0}",0
2019-10-05 14:25:50.696+08,,ddee18ee1107,"{0,0,0,0}",0
2019-10-05 14:25:51.696+08,,ddee18ee1107,"{0,0,0,0}",0
2019-10-05 14:25:52.696+08,,ddee18ee1107,"{0,0,0,0}",0
2019-10-05 14:25:53.697+08,,ddee18ee1107,"{0,0,0,0}",0
2019-10-05 14:25:54.696+08,,ddee18ee1107,"{0,0,0,0}",0
2019-10-05 14:25:55.697+08,,ddee18ee1107,"{0,0,0,0}",0
2019-10-05 14:25:56.697+08,,ddee18ee1107,"{0,0,0,0}",0
2019-10-05 14:25:57.697+08,,ddee18ee1107,"{0,0,0,0}",0
2019-10-05 14:25:58.697+08,,ddee18ee1107,"{0,0,0,0}",0
2019-10-05 14:25:59.697+08,,ddee18ee1107,"{0,0,0,0}",0
2019-10-05 14:26:00.698+08,,ddee18ee1107,"{0,0,0,0}",0
2019-10-05 14:26:01.697+08,,ddee18ee1107,"{0,0,0,0}",0
2019-10-05 14:26:02.697+08,,ddee18ee1107,"{0,0,0,0}",0
2019-10-05 14:26:03.697+08,,ddee18ee1107,"{0,0,0,0}",0
2019-10-05 14:26:04.698+08,,ddee18ee1107,"{0,0,0,0}",0
2019-10-05 14:26:05.698+08,,ddee18ee1107,"{0,0,0,0}",0
2019-10-05 14:26:06.698+08,,ddee18ee1107,"{0,0,0,0}",0
2019-10-05 14:26:07.698+08,,ddee18ee1107,"{0,0,0,0}",0
2019-10-05 14:26:08.698+08,,ddee18ee1107,"{0,0,0,0}",0
2019-10-05 14:26:09.698+08,,ddee18ee1107,"{0,0,0,0}",0
2019-10-05 14:26:10.698+08,,ddee18ee1107,"{0,0,0,0}",0
2019-10-05 14:26:11.699+08,,ddee18ee1107,"{0,0,0,0}",0
2019-10-05 14:26:12.698+08,,ddee18ee1107,"{0,0,0,0}",0
2019-10-05 14:26:13.698+08,,ddee18ee1107,"{0,0,0,0}",0
2019-10-05 14:26:14.698+08,,ddee18ee1107,"{0,0,0,0}",0
2019-10-05 14:26:15.698+08,,ddee18ee1107,"{0,0,0,0}",0
2019-10-05 14:26:16.698+08,,ddee18ee1107,"{0,0,0,0}",0
2019-10-05 14:26:17.699+08,,ddee18ee1107,"{0,0,0,0}",0
2019-10-05 14:26:18.699+08,,ddee18ee1107,"{0,0,0,0}",0
2019-10-05 14:26:19.699+08,,ddee18ee1107,"{0,0,0,0}",0
2019-10-05 14:26:20.699+08,,ddee18ee1107,"{0,0,0,0}",0
2019-10-05 14:26:21.699+08,,ddee18ee1107,"{0,0,0,0}",0
2019-10-05 14:26:22.699+08,,ddee18ee1107,"{0,0,0,0}",0
2019-10-05 14:26:23.699+08,,ddee18ee1107,"{0,0,0,0}",0
2019-10-05 14:26:24.699+08,,ddee18ee1107,"{0,0,0,0}",0
2019-10-05 14:26:25.699+08,,ddee18ee1107,"{0,0,0,0}",0
2019-10-05 14:26:26.699+08,,ddee18ee1107,"{0,0,0,0}",0
2019-10-05 14:26:27.701+08,,ddee18ee1107,"{0,0,0,0}",0
2019-10-05 14:26:28.7+08,,ddee18ee1107,"{0,0,0,0}",0
2019-10-05 14:26:29.699+08,,ddee18ee1107,"{0,0,0,0}",0
2019-10-05 14:26:30.7+08,,ddee18ee1107,"{0,0,0,0}",0
2019-10-05 14:26:31.7+08,,ddee18ee1107,"{0,0,0,0}",0
2019-10-05 14:26:32.7+08,,ddee18ee1107,"{0,0,0,0}",0
2019-10-05 14:26:33.7+08,,ddee18ee1107,"{0,0,0,0}",0
2019-10-05 14:26:34.7+08,,ddee18ee1107,"{0,0,0,0}",0
2019-10-05 14:26:35.7+08,,ddee18ee1107,"{0,0,0,0}",0
2019-10-05 14:26:36.7+08,,ddee18ee1107,"{0,0,0,0}",0
2019-10-05 14:26:37.7+08,,ddee18ee1107,"{0,0,0,0}",0
2019-10-05 14:26:38.7+08,,ddee18ee1107,"{0,0,0,0}",0
2019-10-05 14:26:39.7+08,,ddee18ee1107,"{0,0,0,0}",0
2019-10-05 14:26:40.7+08,,ddee18ee1107,"{0,0,0,0}",0
2019-10-05 14:26:41.701+08,,ddee18ee1107,"{0,0,0,0}",0
2019-10-05 14:26:42.701+08,,ddee18ee1107,"{0,0,0,0}",0
2019-10-05 14:26:43.702+08,,ddee18ee1107,"{0,0,0,0}",0
2019-10-05 14:26:44.701+08,,ddee18ee1107,"{0,0,0,0}",0
2019-10-05 14:26:45.701+08,,ddee18ee1107,"{0,0,0,0}",0
2019-10-05 14:26:46.701+08,,ddee18ee1107,"{0,0,0,0}",0
2019-10-05 14:26:47.702+08,,ddee18ee1107,"{0,0,0,0}",0
2019-10-05 14:26:48.701+08,,ddee18ee1107,"{0,0,0,0}",0
2019-10-05 14:26:49.701+08,,ddee18ee1107,"{0,0,0,0}",0
2019-10-05 14:26:50.702+08,,ddee18ee1107,"{0,0,0,0}",0
2019-10-05 14:26:51.702+08,,ddee18ee1107,"{0,0,0,0}",0
2019-10-05 14:26:52.702+08,,ddee18ee1107,"{0,0,0,0}",0
2019-10-05 14:26:53.702+08,,ddee18ee1107,"{0,0,0,0}",0
2019-10-05 14:26:54.702+08,,ddee18ee1107,"{0,0,0,0}",0
2019-10-05 14:26:55.702+08,,ddee18ee1107,"{0,0,0,0}",0
2019-10-05 14:26:56.702+08,,ddee18ee1107,"{0,0,0,0}",0
2019-10-05 14:26:57.702+08,,ddee18ee1107,"{0,0,0,0}",0
2019-10-05 14:26:58.702+08,,ddee18ee1107,"{0,0,0,0}",0
2019-10-05 14:26:59.702+08,,ddee18ee1107,"{0,0,0,0}",0
2019-10-05 14:27:00.702+08,,ddee18ee1107,"{0,0,0,0}",0
2019-10-05 14:27:01.704+08,,ddee18ee1107,"{0,0,0,0}",0
2019-10-05 14:27:02.703+08,,ddee18ee1107,"{0,0,0,0}",0
2019-10-05 14:27:03.705+08,,ddee18ee1107,"{0,0,0,0}",0
2019-10-05 14:27:04.704+08,,ddee18ee1107,"{0,0,0,0}",0
2019-10-05 14:27:05.703+08,,ddee18ee1107,"{0,0,0,0}",0
2019-10-05 14:27:06.704+08,,ddee18ee1107,"{0,0,0,0}",0
2019-10-05 14:27:07.705+08,,ddee18ee1107,"{0,0,0,0}",0
2019-10-05 14:27:08.704+08,,ddee18ee1107,"{0,0,0,0}",0
2019-10-05 14:27:09.705+08,,ddee18ee1107,"{0,0,0,0}",0
2019-10-05 14:27:10.705+08,,ddee18ee1107,"{0,0,0,0}",0
2019-10-05 14:27:11.705+08,,ddee18ee1107,"{0,0,0,0}",0
2019-10-05 14:27:12.705+08,,ddee18ee1107,"{0,0,0,0}",0
2019-10-05 14:27:13.705+08,,ddee18ee1107,"{0,0,0,0}",0
2019-10-05 14:27:14.704+08,,ddee18ee1107,"{0,0,0,0}",0
2019-10-05 14:27:15.705+08,,ddee18ee1107,"{0,0,0,0}",0
2019-10-05 14:27:16.705+08,,ddee18ee1107,"{0,0,0,0}",0
2019-10-05 14:27:17.705+08,,ddee18ee1107,"{0,0,0,0}",0
2019-10-05 14:27:18.705+08,,ddee18ee1107,"{0,0,0,0}",0
2019-10-05 14:27:19.706+08,,ddee18ee1107,"{0,0,0,0}",0
2019-10-05 14:27:20.705+08,,ddee18ee1107,"{0,0,0,0}",0
2019-10-05 14:27:21.705+08,,ddee18ee1107,"{0,0,0,0}",0
2019-10-05 14:27:22.705+08,,ddee18ee1107,"{0,0,0,0}",0
2019-10-05 14:27:23.705+08,,ddee18ee1107,"{0,0,0,0}",0
2019-10-05 14:27:24.705+08,,ddee18ee1107,"{0,0,0,0}",0
2019-10-05 14:27:25.706+08,,ddee18ee1107,"{0,0,0,0}",0
2019-10-05 14:27:26.705+08,,ddee18ee1107,"{0,0,0,0}",0
2019-10-05 14:27:27.706+08,,ddee18ee1107,"{0,0,0,0}",0
2019-10-05 14:27:28.706+08,,ddee18ee1107,"{0,0,0,0}",0
2019-10-05 14:27:29.706+08,,ddee18ee1107,"{0,0,0,0}",0
2019-10-05 14:27:30.706+08,,ddee18ee1107,"{0,0,0,0}",0
2019-10-05 14:27:31.707+08,,ddee18ee1107,"{0,0,0,0}",0
2019-10-05 14:27:32.706+08,,ddee18ee1107,"{0,0,0,0}",0
2019-10-05 14:27:33.706+08,,ddee18ee1107,"{0,0,0,0}",0
2019-10-05 14:27:34.706+08,,ddee18ee1107,"{0,0,0,0}",0
2019-10-05 14:27:35.706+08,,ddee18ee1107,"{0,0,0,0}",0
2019-10-05 14:27:36.706+08,,ddee18ee1107,"{0,0,0,0}",0
2019-10-05 14:27:37.707+08,,ddee18ee1107,"{0,0,0,0}",0
2019-10-05 14:27:38.706+08,,ddee18ee1107,"{0,0,0,0}",0
2019-10-05 14:27:39.707+08,,ddee18ee1107,"{0,0,0,0}",0
2019-10-05 14:27:40.707+08,,ddee18ee1107,"{0,0,0,0}",0
2019-10-05 14:27:41.707+08,,ddee18ee1107,"{0,0,0,0}",0
2019-10-05 14:27:42.707+08,,ddee18ee1107,"{0,0,0,0}",0
2019-10-05 14:27:43.708+08,,ddee18ee1107,"{0,0,0,0}",0
2019-10-05 14:27:44.707+08,,ddee18ee1107,"{0,0,0,0}",0
2019-10-05 14:27:45.708+08,,ddee18ee1107,"{0,0,0,0}",0
2019-10-05 14:27:46.707+08,,ddee18ee1107,"{0,0,0,0}",0
2019-10-05 14:27:47.707+08,,ddee18ee1107,"{0,0,0,0}",0
2019-10-05 14:27:48.708+08,,ddee18ee1107,"{0,0,0,0}",0
2019-10-05 14:27:49.708+08,,ddee18ee1107,"{0,0,0,0}",0
2019-10-05 14:27:50.708+08,,ddee18ee1107,"{0,0,0,0}",0
2019-10-05 14:27:51.708+08,,ddee18ee1107,"{0,0,0,0}",0
2019-10-05 14:27:52.708+08,,ddee18ee1107,"{0,0,0,0}",0
2019-10-05 14:27:53.708+08,,ddee18ee1107,"{0,0,0,0}",0
2019-10-05 14:27:54.708+08,,ddee18ee1107,"{0,0,0,0}",0
2019-10-05 14:27:55.709+08,,ddee18ee1107,"{0,0,0,0}",0
2019-10-05 14:27:56.708+08,,ddee18ee1107,"{0,0,0,0}",0
2019-10-05 14:27:57.708+08,,ddee18ee1107,"{0,0,0,0}",0
2019-10-05 14:27:58.709+08,,ddee18ee1107,"{0,0,0,0}",0
2019-10-05 14:27:59.709+08,,ddee18ee1107,"{0,0,0,0}",0
2019-10-05 14:28:00.709+08,,ddee18ee1107,"{0,0,0,0}",0
2019-10-05 14:28:01.709+08,,ddee18ee1107,"{0,0,0,0}",0
2019-10-05 14:28:02.709+08,,ddee18ee1107,"{0,0,0,0}",0
2019-10-05 14:28:03.709+08,,ddee18ee1107,"{0,0,0,0}",0
2019-10-05 14:28:04.709+08,,ddee18ee1107,"{0,0,0,0}",0
2019-10-05 14:28:05.709+08,,ddee18ee1107,"{0,0,0,0}",0
2019-10-05 14:28:06.709+08,,ddee18ee1107,"{0,0,0,0}",0
2019-10-05 14:28:07.709+08,,ddee18ee1107,"{0,0,0,0}",0
2019-10-05 14:28:08.71+08,,ddee18ee1107,"{0,0,0,0}",0
2019-10-05 14:28:09.71+08,,ddee18ee1107,"{0,0,0,0}",0
2019-10-05 14:28:10.71+08,,ddee18ee1107,"{0,0,0,0}",0
2019-10-05 14:28:11.71+08,,ddee18ee1107,"{0,0,0,0}",0
2019-10-05 14:28:12.71+08,,ddee18ee1107,"{0,0,0,0}",0
2019-10-05 14:28:13.71+08,,ddee18ee1107,"{0,0,0,0}",0
2019-10-05 14:28:14.711+08,,ddee18ee1107,"{0,0,0,0}",0
2019-10-05 14:28:15.71+08,,ddee18ee1107,"{0,0,0,0}",0
2019-10-05 14:28:16.71+08,,ddee18ee1107,"{0,0,0,0}",0
2019-10-05 14:28:17.71+08,,ddee18ee1107,"{0,0,0,0}",0
2019-10-05 14:28:18.711+08,,ddee18ee1107,"{0,0,0,0}",0
2019-10-05 14:28:19.711+08,,ddee18ee1107,"{0,0,0,0}",0
2019-10-05 14:28:20.711+08,,ddee18ee1107,"{0,0,0,0}",0
2019-10-05 14:28:21.711+08,,ddee18ee1107,"{0,0,0,0}",0
2019-10-05 14:28:22.711+08,,ddee18ee1107,"{0,0,0,0}",0
2019-10-05 14:28:23.712+08,,ddee18ee1107,"{0,0,0,0}",0
2019-10-05 14:28:24.712+08,,ddee18ee1107,"{0,0,0,0}",0
2019-10-05 14:28:25.712+08,,ddee18ee1107,"{0,0,0,0}",0
2019-10-05 14:28:26.712+08,,ddee18ee1107,"{0,0,0,0}",0
2019-10-05 14:28:27.712+08,,ddee18ee1107,"{0,0,0,0}",0
2019-10-05 14:28:28.712+08,,ddee18ee1107,"{0,0,0,0}",0
2019-10-05 14:28:29.712+08,,ddee18ee1107,"{0,0,0,0}",0
2019-10-05 14:28:30.712+08,,ddee18ee1107,"{0,0,0,0}",0
2019-10-05 14:28:31.712+08,,ddee18ee1107,"{0,0,0,0}",0
2019-10-05 14:28:32.713+08,,ddee18ee1107,"{0,0,0,0}",0
2019-10-05 14:28:33.713+08,,ddee18ee1107,"{0,0,0,0}",0
2019-10-05 14:28:34.713+08,,ddee18ee1107,"{0,0,0,0}",0
2019-10-05 14:28:35.713+08,,ddee18ee1107,"{0,0,0,0}",0
2019-10-05 14:28:36.713+08,,ddee18ee1107,"{0,0,0,0}",0
2019-10-05 14:28:37.713+08,,ddee18ee1107,"{0,0,0,0}",0
2019-10-05 14:28:38.713+08,,ddee18ee1107,"{0,0,0,0}",0
2019-10-05 14:28:39.713+08,,ddee18ee1107,"{0,0,0,0}",0
2019-10-05 14:28:40.714+08,,ddee18ee1107,"{0,0,0,0}",0
2019-10-05 14:28:41.713+08,,ddee18ee1107,"{0,0,0,0}",0
2019-10-05 14:28:42.713+08,,ddee18ee1107,"{0,0,0,0}",0
2019-10-05 14:28:43.713+08,,ddee18ee1107,"{0,0,0,0}",0
2019-10-05 14:28:44.713+08,,ddee18ee1107,"{0,0,0,0}",0
2019-10-05 14:28:45.714+08,,ddee18ee1107,"{0,0,0,0}",0
2019-10-05 14:28:46.714+08,,ddee18ee1107,"{0,0,0,0}",0
2019-10-05 14:28:47.714+08,,ddee18ee1107,"{0,0,0,0}",0
2019-10-05 14:28:48.714+08,,ddee18ee1107,"{0,0,0,0}",0
2019-10-05 14:28:49.714+08,,ddee18ee1107,"{0,0,0,0}",0
2019-10-05 14:28:50.714+08,,ddee18ee1107,"{0,0,0,0}",0
2019-10-05 14:28:51.714+08,,ddee18ee1107,"{0,0,0,0}",0
2019-10-05 14:28:52.714+08,,ddee18ee1107,"{0,0,0,0}",0
2019-10-05 14:28:53.714+08,,ddee18ee1107,"{0,0,0,0}",0
2019-10-05 14:28:54.715+08,,ddee18ee1107,"{0,0,0,0}",0
2019-10-05 14:28:55.715+08,,ddee18ee1107,"{0,0,0,0}",0
2019-10-05 14:28:56.715+08,,ddee18ee1107,"{0,0,0,0}",0
2019-10-05 14:28:57.715+08,,ddee18ee1107,"{0,0,0,0}",0
2019-10-05 14:28:58.715+08,,ddee18ee1107,"{0,0,0,0}",0
2019-10-05 14:28:59.715+08,,ddee18ee1107,"{0,0,0,0}",0
2019-10-05 14:29:00.715+08,,ddee18ee1107,"{0,0,0,0}",0
2019-10-05 14:29:01.715+08,,ddee18ee1107,"{0,0,0,0}",0
2019-10-05 14:29:02.715+08,,ddee18ee1107,"{0,0,0,0}",0
2019-10-05 14:29:03.715+08,,ddee18ee1107,"{0,0,0,0}",0
2019-10-05 14:29:04.716+08,,ddee18ee1107,"{0,0,0,0}",0
2019-10-05 14:29:05.716+08,,ddee18ee1107,"{0,0,0,0}",0
2019-10-05 14:29:06.716+08,,ddee18ee1107,"{0,0,0,0}",0
2019-10-05 14:29:07.717+08,,ddee18ee1107,"{0,0,0,0}",0
2019-10-05 14:29:08.716+08,,ddee18ee1107,"{0,0,0,0}",0
2019-10-05 14:29:09.716+08,,ddee18ee1107,"{0,0,0,0}",0
2019-10-05 14:29:10.717+08,,ddee18ee1107,"{0,0,0,0}",0
2019-10-05 14:29:11.716+08,,ddee18ee1107,"{0,0,0,0}",0
2019-10-05 14:29:12.716+08,,ddee18ee1107,"{0,0,0,0}",0
2019-10-05 14:29:13.717+08,,ddee18ee1107,"{0,0,0,0}",0
2019-10-05 14:29:14.716+08,,ddee18ee1107,"{0,0,0,0}",0
2019-10-05 14:29:15.717+08,,ddee18ee1107,"{0,0,0,0}",0
2019-10-05 14:29:16.717+08,,ddee18ee1107,"{0,0,0,0}",0
2019-10-05 14:29:17.717+08,,ddee18ee1107,"{0,0,0,0}",0
2019-10-05 14:29:18.717+08,,ddee18ee1107,"{0,0,0,0}",0
2019-10-05 14:29:19.717+08,,ddee18ee1107,"{0,0,0,0}",0
2019-10-05 14:29:21.717+08,,ddee18ee1107,"{0,0,0,0}",0
2019-10-05 14:29:22.717+08,,ddee18ee1107,"{0,0,0,0}",0
2019-10-05 14:29:23.717+08,,ddee18ee1107,"{0,0,0,0}",0
2019-10-05 14:29:24.717+08,,ddee18ee1107,"{0,0,0,0}",0
2019-10-05 14:29:25.718+08,,ddee18ee1107,"{0,0,0,0}",0
2019-10-05 14:29:26.718+08,,ddee18ee1107,"{0,0,0,0}",0
2019-10-05 14:29:27.718+08,,ddee18ee1107,"{0,0,0,0}",0
2019-10-05 14:29:28.718+08,,ddee18ee1107,"{0,0,0,0}",0
2019-10-05 14:29:29.718+08,,ddee18ee1107,"{0,0,0,0}",0
2019-10-05 14:29:30.718+08,,ddee18ee1107,"{0,0,0,0}",0
2019-10-05 14:29:31.718+08,,ddee18ee1107,"{0,0,0,0}",0
2019-10-05 14:29:32.718+08,,ddee18ee1107,"{0,0,0,0}",0
2019-10-05 14:29:33.719+08,,ddee18ee1107,"{0,0,0,0}",0
2019-10-05 14:29:34.72+08,,ddee18ee1107,"{0,0,0,0}",0
2019-10-05 14:29:35.719+08,,ddee18ee1107,"{0,0,0,0}",0
2019-10-05 14:29:36.719+08,,ddee18ee1107,"{0,0,0,0}",0
2019-10-05 14:29:37.719+08,,ddee18ee1107,"{0,0,0,0}",0
2019-10-05 14:29:38.721+08,,ddee18ee1107,"{0,0,0,0}",0
2019-10-05 14:29:39.72+08,,ddee18ee1107,"{0,0,0,0}",0
2019-10-05 14:29:40.72+08,,ddee18ee1107,"{0,0,0,0}",0
2019-10-05 14:29:41.721+08,,ddee18ee1107,"{0,0,0,0}",0
2019-10-05 14:29:42.72+08,,ddee18ee1107,"{0,0,0,0}",0
2019-10-05 14:29:43.72+08,,ddee18ee1107,"{0,0,0,0}",0
2019-10-05 14:29:44.721+08,,ddee18ee1107,"{0,0,0,0}",0
2019-10-05 14:29:45.72+08,,ddee18ee1107,"{0,0,0,0}",0
2019-10-05 14:29:46.721+08,,ddee18ee1107,"{0,0,0,0}",0
2019-10-05 14:29:47.722+08,,ddee18ee1107,"{0,0,0,0}",0
2019-10-05 14:29:48.721+08,,ddee18ee1107,"{0,0,0,0}",0
2019-10-05 14:29:49.721+08,,ddee18ee1107,"{0,0,0,0}",0
2019-10-05 14:29:50.722+08,,ddee18ee1107,"{0,0,0,0}",0
2019-10-05 14:29:51.721+08,,ddee18ee1107,"{0,0,0,0}",0
2019-10-05 14:29:52.723+08,,ddee18ee1107,"{0,0,0,0}",0
2019-10-05 14:29:53.721+08,,ddee18ee1107,"{0,0,0,0}",0
2019-10-05 14:29:54.721+08,,ddee18ee1107,"{0,0,0,0}",0
2019-10-05 14:29:55.721+08,,ddee18ee1107,"{0,0,0,0}",0
2019-10-05 14:29:56.722+08,,ddee18ee1107,"{0,0,0,0}",0
2019-10-05 14:29:57.721+08,,ddee18ee1107,"{0,0,0,0}",0
2019-10-05 14:29:58.721+08,,ddee18ee1107,"{0,0,0,0}",0
2019-10-05 14:29:59.722+08,,ddee18ee1107,"{0,0,0,0}",0
